EESchema Schematic File Version 4
LIBS:test_project-cache
EELAYER 29 0
EELAYER END
$Descr A4 11693 8268
encoding utf-8
Sheet 13 23
Title ""
Date ""
Rev ""
Comp ""
Comment1 ""
Comment2 ""
Comment3 ""
Comment4 ""
$EndDescr
Wire Wire Line
	6860 2490 6960 2490
Connection ~ 5150 2490
Wire Wire Line
	5000 2490 5040 2490
Connection ~ 5850 4970
Connection ~ 5750 4620
Connection ~ 5650 4240
Connection ~ 5550 3890
Connection ~ 5450 3540
Connection ~ 5350 3190
Connection ~ 5250 2840
Wire Wire Line
	5000 4970 5040 4970
Wire Wire Line
	5000 4620 5040 4620
Wire Wire Line
	5000 4240 5040 4240
Wire Wire Line
	5000 3890 5040 3890
Wire Wire Line
	5000 3540 5040 3540
Wire Wire Line
	5000 3190 5040 3190
Wire Wire Line
	5000 2840 5040 2840
Wire Wire Line
	6860 4970 6960 4970
Wire Wire Line
	6860 4620 6960 4620
$Comp
L power:GND #PWR?
U 1 1 60F8CC3F
P 6960 5290
AR Path="/5FDB8EF8/60F8CC3F" Ref="#PWR?"  Part="1" 
AR Path="/6003A36D/60F8CC3F" Ref="#PWR?"  Part="1" 
AR Path="/60F8CC3F" Ref="#PWR?"  Part="1" 
AR Path="/60EDB96D/60F8CC3F" Ref="#PWR?"  Part="1" 
AR Path="/60F84ABC/60F8CC3F" Ref="#PWR?"  Part="1" 
F 0 "#PWR?" H 6960 5040 50  0001 C CNN
F 1 "GND" H 6965 5117 50  0000 C CNN
F 2 "" H 6960 5290 50  0001 C CNN
F 3 "" H 6960 5290 50  0001 C CNN
	1    6960 5290
	1    0    0    -1  
$EndComp
Wire Wire Line
	6860 4240 6960 4240
Wire Wire Line
	6860 3890 6960 3890
Wire Wire Line
	6860 3540 6960 3540
Wire Wire Line
	6860 3190 6960 3190
Wire Wire Line
	6860 2840 6960 2840
$Comp
L Device:C C?
U 1 1 60F8CC4F
P 6100 2640
AR Path="/5FDB8EF8/60F8CC4F" Ref="C?"  Part="1" 
AR Path="/6003A36D/60F8CC4F" Ref="C?"  Part="1" 
AR Path="/60EDB96D/60F8CC4F" Ref="C?"  Part="1" 
AR Path="/60F84ABC/60F8CC4F" Ref="C?"  Part="1" 
F 0 "C?" V 6230 2690 50  0000 L CNN
F 1 "100nF" V 6230 2400 50  0000 L CNN
F 2 "Capacitor_SMD:C_0805_2012Metric" H 6138 2490 50  0001 C CNN
F 3 "~" H 6100 2640 50  0001 C CNN
	1    6100 2640
	0    1    1    0   
$EndComp
$Comp
L Device:C C?
U 1 1 60F8CC55
P 6100 2300
AR Path="/5FDB8EF8/60F8CC55" Ref="C?"  Part="1" 
AR Path="/6003A36D/60F8CC55" Ref="C?"  Part="1" 
AR Path="/60EDB96D/60F8CC55" Ref="C?"  Part="1" 
AR Path="/60F84ABC/60F8CC55" Ref="C?"  Part="1" 
F 0 "C?" V 6230 2350 50  0000 L CNN
F 1 "100nF" V 6230 2060 50  0000 L CNN
F 2 "Capacitor_SMD:C_0805_2012Metric" H 6138 2150 50  0001 C CNN
F 3 "~" H 6100 2300 50  0001 C CNN
	1    6100 2300
	0    1    1    0   
$EndComp
$Comp
L Device:C C?
U 1 1 60F8CC5B
P 6100 2990
AR Path="/5FDB8EF8/60F8CC5B" Ref="C?"  Part="1" 
AR Path="/6003A36D/60F8CC5B" Ref="C?"  Part="1" 
AR Path="/60EDB96D/60F8CC5B" Ref="C?"  Part="1" 
AR Path="/60F84ABC/60F8CC5B" Ref="C?"  Part="1" 
F 0 "C?" V 6230 3040 50  0000 L CNN
F 1 "100nF" V 6230 2750 50  0000 L CNN
F 2 "Capacitor_SMD:C_0805_2012Metric" H 6138 2840 50  0001 C CNN
F 3 "~" H 6100 2990 50  0001 C CNN
	1    6100 2990
	0    1    1    0   
$EndComp
$Comp
L Device:C C?
U 1 1 60F8CC61
P 6100 3340
AR Path="/5FDB8EF8/60F8CC61" Ref="C?"  Part="1" 
AR Path="/6003A36D/60F8CC61" Ref="C?"  Part="1" 
AR Path="/60EDB96D/60F8CC61" Ref="C?"  Part="1" 
AR Path="/60F84ABC/60F8CC61" Ref="C?"  Part="1" 
F 0 "C?" V 6230 3390 50  0000 L CNN
F 1 "100nF" V 6230 3100 50  0000 L CNN
F 2 "Capacitor_SMD:C_0805_2012Metric" H 6138 3190 50  0001 C CNN
F 3 "~" H 6100 3340 50  0001 C CNN
	1    6100 3340
	0    1    1    0   
$EndComp
$Comp
L Device:C C?
U 1 1 60F8CC67
P 6100 3680
AR Path="/5FDB8EF8/60F8CC67" Ref="C?"  Part="1" 
AR Path="/6003A36D/60F8CC67" Ref="C?"  Part="1" 
AR Path="/60EDB96D/60F8CC67" Ref="C?"  Part="1" 
AR Path="/60F84ABC/60F8CC67" Ref="C?"  Part="1" 
F 0 "C?" V 6230 3730 50  0000 L CNN
F 1 "100nF" V 6230 3440 50  0000 L CNN
F 2 "Capacitor_SMD:C_0805_2012Metric" H 6138 3530 50  0001 C CNN
F 3 "~" H 6100 3680 50  0001 C CNN
	1    6100 3680
	0    1    1    0   
$EndComp
$Comp
L Device:C C?
U 1 1 60F8CC6D
P 6100 4050
AR Path="/5FDB8EF8/60F8CC6D" Ref="C?"  Part="1" 
AR Path="/6003A36D/60F8CC6D" Ref="C?"  Part="1" 
AR Path="/60EDB96D/60F8CC6D" Ref="C?"  Part="1" 
AR Path="/60F84ABC/60F8CC6D" Ref="C?"  Part="1" 
F 0 "C?" V 6230 4100 50  0000 L CNN
F 1 "100nF" V 6230 3810 50  0000 L CNN
F 2 "Capacitor_SMD:C_0805_2012Metric" H 6138 3900 50  0001 C CNN
F 3 "~" H 6100 4050 50  0001 C CNN
	1    6100 4050
	0    1    1    0   
$EndComp
Wire Wire Line
	5150 2490 6460 2490
Wire Wire Line
	5250 2840 6460 2840
Wire Wire Line
	5350 3190 6460 3190
Wire Wire Line
	5450 3540 6460 3540
Wire Wire Line
	5550 3890 6460 3890
Wire Wire Line
	5650 4240 6460 4240
Wire Wire Line
	5750 4620 6460 4620
Wire Wire Line
	5850 4970 6460 4970
$Comp
L Device:C C?
U 1 1 60F8CC7B
P 6090 4410
AR Path="/5FDB8EF8/60F8CC7B" Ref="C?"  Part="1" 
AR Path="/6003A36D/60F8CC7B" Ref="C?"  Part="1" 
AR Path="/60EDB96D/60F8CC7B" Ref="C?"  Part="1" 
AR Path="/60F84ABC/60F8CC7B" Ref="C?"  Part="1" 
F 0 "C?" V 6220 4460 50  0000 L CNN
F 1 "100nF" V 6220 4170 50  0000 L CNN
F 2 "Capacitor_SMD:C_0805_2012Metric" H 6128 4260 50  0001 C CNN
F 3 "~" H 6090 4410 50  0001 C CNN
	1    6090 4410
	0    1    1    0   
$EndComp
$Comp
L Device:C C?
U 1 1 60F8CC81
P 6100 4760
AR Path="/5FDB8EF8/60F8CC81" Ref="C?"  Part="1" 
AR Path="/6003A36D/60F8CC81" Ref="C?"  Part="1" 
AR Path="/60EDB96D/60F8CC81" Ref="C?"  Part="1" 
AR Path="/60F84ABC/60F8CC81" Ref="C?"  Part="1" 
F 0 "C?" V 6230 4810 50  0000 L CNN
F 1 "100nF" V 6230 4520 50  0000 L CNN
F 2 "Capacitor_SMD:C_0805_2012Metric" H 6138 4610 50  0001 C CNN
F 3 "~" H 6100 4760 50  0001 C CNN
	1    6100 4760
	0    1    1    0   
$EndComp
Wire Wire Line
	5950 2300 5150 2300
Wire Wire Line
	5150 2300 5150 2490
Wire Wire Line
	5950 2640 5250 2640
Wire Wire Line
	5250 2640 5250 2840
Wire Wire Line
	5950 2990 5350 2990
Wire Wire Line
	5350 2990 5350 3190
Wire Wire Line
	5950 3340 5450 3340
Wire Wire Line
	5450 3340 5450 3540
Wire Wire Line
	5950 3680 5550 3680
Wire Wire Line
	5550 3680 5550 3890
Wire Wire Line
	5950 4050 5650 4050
Wire Wire Line
	5650 4050 5650 4240
Wire Wire Line
	5940 4410 5750 4410
Wire Wire Line
	5750 4410 5750 4620
Wire Wire Line
	5950 4760 5850 4760
Wire Wire Line
	5850 4760 5850 4970
$Comp
L power:GND #PWR?
U 1 1 60F8CC97
P 6290 4760
AR Path="/5FDB8EF8/60F8CC97" Ref="#PWR?"  Part="1" 
AR Path="/6003A36D/60F8CC97" Ref="#PWR?"  Part="1" 
AR Path="/60F8CC97" Ref="#PWR?"  Part="1" 
AR Path="/60EDB96D/60F8CC97" Ref="#PWR?"  Part="1" 
AR Path="/60F84ABC/60F8CC97" Ref="#PWR?"  Part="1" 
F 0 "#PWR?" H 6290 4510 50  0001 C CNN
F 1 "GND" H 6295 4587 50  0000 C CNN
F 2 "" H 6290 4760 50  0001 C CNN
F 3 "" H 6290 4760 50  0001 C CNN
	1    6290 4760
	0    -1   -1   0   
$EndComp
$Comp
L power:GND #PWR?
U 1 1 60F8CC9D
P 6280 4410
AR Path="/5FDB8EF8/60F8CC9D" Ref="#PWR?"  Part="1" 
AR Path="/6003A36D/60F8CC9D" Ref="#PWR?"  Part="1" 
AR Path="/60F8CC9D" Ref="#PWR?"  Part="1" 
AR Path="/60EDB96D/60F8CC9D" Ref="#PWR?"  Part="1" 
AR Path="/60F84ABC/60F8CC9D" Ref="#PWR?"  Part="1" 
F 0 "#PWR?" H 6280 4160 50  0001 C CNN
F 1 "GND" H 6285 4237 50  0000 C CNN
F 2 "" H 6280 4410 50  0001 C CNN
F 3 "" H 6280 4410 50  0001 C CNN
	1    6280 4410
	0    -1   -1   0   
$EndComp
$Comp
L power:GND #PWR?
U 1 1 60F8CCA3
P 6290 4050
AR Path="/5FDB8EF8/60F8CCA3" Ref="#PWR?"  Part="1" 
AR Path="/6003A36D/60F8CCA3" Ref="#PWR?"  Part="1" 
AR Path="/60F8CCA3" Ref="#PWR?"  Part="1" 
AR Path="/60EDB96D/60F8CCA3" Ref="#PWR?"  Part="1" 
AR Path="/60F84ABC/60F8CCA3" Ref="#PWR?"  Part="1" 
F 0 "#PWR?" H 6290 3800 50  0001 C CNN
F 1 "GND" H 6295 3877 50  0000 C CNN
F 2 "" H 6290 4050 50  0001 C CNN
F 3 "" H 6290 4050 50  0001 C CNN
	1    6290 4050
	0    -1   -1   0   
$EndComp
$Comp
L power:GND #PWR?
U 1 1 60F8CCA9
P 6290 3680
AR Path="/5FDB8EF8/60F8CCA9" Ref="#PWR?"  Part="1" 
AR Path="/6003A36D/60F8CCA9" Ref="#PWR?"  Part="1" 
AR Path="/60F8CCA9" Ref="#PWR?"  Part="1" 
AR Path="/60EDB96D/60F8CCA9" Ref="#PWR?"  Part="1" 
AR Path="/60F84ABC/60F8CCA9" Ref="#PWR?"  Part="1" 
F 0 "#PWR?" H 6290 3430 50  0001 C CNN
F 1 "GND" H 6295 3507 50  0000 C CNN
F 2 "" H 6290 3680 50  0001 C CNN
F 3 "" H 6290 3680 50  0001 C CNN
	1    6290 3680
	0    -1   -1   0   
$EndComp
$Comp
L power:GND #PWR?
U 1 1 60F8CCAF
P 6290 3340
AR Path="/5FDB8EF8/60F8CCAF" Ref="#PWR?"  Part="1" 
AR Path="/6003A36D/60F8CCAF" Ref="#PWR?"  Part="1" 
AR Path="/60F8CCAF" Ref="#PWR?"  Part="1" 
AR Path="/60EDB96D/60F8CCAF" Ref="#PWR?"  Part="1" 
AR Path="/60F84ABC/60F8CCAF" Ref="#PWR?"  Part="1" 
F 0 "#PWR?" H 6290 3090 50  0001 C CNN
F 1 "GND" H 6295 3167 50  0000 C CNN
F 2 "" H 6290 3340 50  0001 C CNN
F 3 "" H 6290 3340 50  0001 C CNN
	1    6290 3340
	0    -1   -1   0   
$EndComp
$Comp
L power:GND #PWR?
U 1 1 60F8CCB5
P 6290 2990
AR Path="/5FDB8EF8/60F8CCB5" Ref="#PWR?"  Part="1" 
AR Path="/6003A36D/60F8CCB5" Ref="#PWR?"  Part="1" 
AR Path="/60F8CCB5" Ref="#PWR?"  Part="1" 
AR Path="/60EDB96D/60F8CCB5" Ref="#PWR?"  Part="1" 
AR Path="/60F84ABC/60F8CCB5" Ref="#PWR?"  Part="1" 
F 0 "#PWR?" H 6290 2740 50  0001 C CNN
F 1 "GND" H 6295 2817 50  0000 C CNN
F 2 "" H 6290 2990 50  0001 C CNN
F 3 "" H 6290 2990 50  0001 C CNN
	1    6290 2990
	0    -1   -1   0   
$EndComp
$Comp
L power:GND #PWR?
U 1 1 60F8CCBB
P 6290 2640
AR Path="/5FDB8EF8/60F8CCBB" Ref="#PWR?"  Part="1" 
AR Path="/6003A36D/60F8CCBB" Ref="#PWR?"  Part="1" 
AR Path="/60F8CCBB" Ref="#PWR?"  Part="1" 
AR Path="/60EDB96D/60F8CCBB" Ref="#PWR?"  Part="1" 
AR Path="/60F84ABC/60F8CCBB" Ref="#PWR?"  Part="1" 
F 0 "#PWR?" H 6290 2390 50  0001 C CNN
F 1 "GND" H 6295 2467 50  0000 C CNN
F 2 "" H 6290 2640 50  0001 C CNN
F 3 "" H 6290 2640 50  0001 C CNN
	1    6290 2640
	0    -1   -1   0   
$EndComp
$Comp
L power:GND #PWR?
U 1 1 60F8CCC1
P 6290 2300
AR Path="/5FDB8EF8/60F8CCC1" Ref="#PWR?"  Part="1" 
AR Path="/6003A36D/60F8CCC1" Ref="#PWR?"  Part="1" 
AR Path="/60F8CCC1" Ref="#PWR?"  Part="1" 
AR Path="/60EDB96D/60F8CCC1" Ref="#PWR?"  Part="1" 
AR Path="/60F84ABC/60F8CCC1" Ref="#PWR?"  Part="1" 
F 0 "#PWR?" H 6290 2050 50  0001 C CNN
F 1 "GND" H 6295 2127 50  0000 C CNN
F 2 "" H 6290 2300 50  0001 C CNN
F 3 "" H 6290 2300 50  0001 C CNN
	1    6290 2300
	0    -1   -1   0   
$EndComp
Wire Wire Line
	6250 2300 6290 2300
Wire Wire Line
	6250 2640 6290 2640
Wire Wire Line
	6250 2990 6290 2990
Wire Wire Line
	6250 3340 6290 3340
Wire Wire Line
	6250 3680 6290 3680
Wire Wire Line
	6250 4050 6290 4050
Wire Wire Line
	6240 4410 6280 4410
Wire Wire Line
	6250 4760 6290 4760
Wire Wire Line
	6960 2490 6960 2840
Connection ~ 6960 2840
Wire Wire Line
	6960 2840 6960 3190
Connection ~ 6960 3190
Wire Wire Line
	6960 3190 6960 3540
Connection ~ 6960 3540
Wire Wire Line
	6960 3540 6960 3890
Connection ~ 6960 3890
Wire Wire Line
	6960 3890 6960 4240
Connection ~ 6960 4240
Wire Wire Line
	6960 4240 6960 4620
Connection ~ 6960 4620
Wire Wire Line
	6960 4620 6960 4970
Connection ~ 6960 4970
$Comp
L Device:R R?
U 1 1 60F8CCDD
P 4590 2660
AR Path="/5FDB8EF8/60F8CCDD" Ref="R?"  Part="1" 
AR Path="/6003A36D/60F8CCDD" Ref="R?"  Part="1" 
AR Path="/60EDB96D/60F8CCDD" Ref="R?"  Part="1" 
AR Path="/60F84ABC/60F8CCDD" Ref="R?"  Part="1" 
F 0 "R?" V 4500 2540 50  0000 C CNN
F 1 "10k" V 4500 2740 50  0000 C CNN
F 2 "Resistor_SMD:R_0805_2012Metric" V 4520 2660 50  0001 C CNN
F 3 "~" H 4590 2660 50  0001 C CNN
	1    4590 2660
	0    1    1    0   
$EndComp
$Comp
L Device:R R?
U 1 1 60F8CCE3
P 4590 3010
AR Path="/5FDB8EF8/60F8CCE3" Ref="R?"  Part="1" 
AR Path="/6003A36D/60F8CCE3" Ref="R?"  Part="1" 
AR Path="/60EDB96D/60F8CCE3" Ref="R?"  Part="1" 
AR Path="/60F84ABC/60F8CCE3" Ref="R?"  Part="1" 
F 0 "R?" V 4500 2910 50  0000 C CNN
F 1 "10k" V 4500 3090 50  0000 C CNN
F 2 "Resistor_SMD:R_0805_2012Metric" V 4520 3010 50  0001 C CNN
F 3 "~" H 4590 3010 50  0001 C CNN
	1    4590 3010
	0    1    1    0   
$EndComp
$Comp
L Device:R R?
U 1 1 60F8CCE9
P 4590 3360
AR Path="/5FDB8EF8/60F8CCE9" Ref="R?"  Part="1" 
AR Path="/6003A36D/60F8CCE9" Ref="R?"  Part="1" 
AR Path="/60EDB96D/60F8CCE9" Ref="R?"  Part="1" 
AR Path="/60F84ABC/60F8CCE9" Ref="R?"  Part="1" 
F 0 "R?" V 4500 3260 50  0000 C CNN
F 1 "10k" V 4500 3440 50  0000 C CNN
F 2 "Resistor_SMD:R_0805_2012Metric" V 4520 3360 50  0001 C CNN
F 3 "~" H 4590 3360 50  0001 C CNN
	1    4590 3360
	0    1    1    0   
$EndComp
$Comp
L Device:R R?
U 1 1 60F8CCEF
P 4590 3710
AR Path="/5FDB8EF8/60F8CCEF" Ref="R?"  Part="1" 
AR Path="/6003A36D/60F8CCEF" Ref="R?"  Part="1" 
AR Path="/60EDB96D/60F8CCEF" Ref="R?"  Part="1" 
AR Path="/60F84ABC/60F8CCEF" Ref="R?"  Part="1" 
F 0 "R?" V 4500 3610 50  0000 C CNN
F 1 "10k" V 4500 3790 50  0000 C CNN
F 2 "Resistor_SMD:R_0805_2012Metric" V 4520 3710 50  0001 C CNN
F 3 "~" H 4590 3710 50  0001 C CNN
	1    4590 3710
	0    1    1    0   
$EndComp
$Comp
L Device:R R?
U 1 1 60F8CCF5
P 4590 4060
AR Path="/5FDB8EF8/60F8CCF5" Ref="R?"  Part="1" 
AR Path="/6003A36D/60F8CCF5" Ref="R?"  Part="1" 
AR Path="/60EDB96D/60F8CCF5" Ref="R?"  Part="1" 
AR Path="/60F84ABC/60F8CCF5" Ref="R?"  Part="1" 
F 0 "R?" V 4500 3980 50  0000 C CNN
F 1 "10k" V 4500 4150 50  0000 C CNN
F 2 "Resistor_SMD:R_0805_2012Metric" V 4520 4060 50  0001 C CNN
F 3 "~" H 4590 4060 50  0001 C CNN
	1    4590 4060
	0    1    1    0   
$EndComp
Wire Wire Line
	5040 2660 4740 2660
Wire Wire Line
	4740 3010 5040 3010
Wire Wire Line
	4740 3360 5040 3360
Wire Wire Line
	4740 3710 5040 3710
Wire Wire Line
	4740 4060 5040 4060
$Comp
L Device:R R?
U 1 1 60F8CD00
P 4590 4440
AR Path="/5FDB8EF8/60F8CD00" Ref="R?"  Part="1" 
AR Path="/6003A36D/60F8CD00" Ref="R?"  Part="1" 
AR Path="/60EDB96D/60F8CD00" Ref="R?"  Part="1" 
AR Path="/60F84ABC/60F8CD00" Ref="R?"  Part="1" 
F 0 "R?" V 4500 4360 50  0000 C CNN
F 1 "10k" V 4500 4540 50  0000 C CNN
F 2 "Resistor_SMD:R_0805_2012Metric" V 4520 4440 50  0001 C CNN
F 3 "~" H 4590 4440 50  0001 C CNN
	1    4590 4440
	0    1    1    0   
$EndComp
Wire Wire Line
	4740 4440 5040 4440
$Comp
L Device:R R?
U 1 1 60F8CD07
P 4590 4790
AR Path="/5FDB8EF8/60F8CD07" Ref="R?"  Part="1" 
AR Path="/6003A36D/60F8CD07" Ref="R?"  Part="1" 
AR Path="/60EDB96D/60F8CD07" Ref="R?"  Part="1" 
AR Path="/60F84ABC/60F8CD07" Ref="R?"  Part="1" 
F 0 "R?" V 4500 4710 50  0000 C CNN
F 1 "10k" V 4500 4880 50  0000 C CNN
F 2 "Resistor_SMD:R_0805_2012Metric" V 4520 4790 50  0001 C CNN
F 3 "~" H 4590 4790 50  0001 C CNN
	1    4590 4790
	0    1    1    0   
$EndComp
Wire Wire Line
	4740 4790 5040 4790
Wire Wire Line
	4740 2310 5040 2310
$Comp
L Device:R R?
U 1 1 60F8CD0F
P 4590 2310
AR Path="/5FDB8EF8/60F8CD0F" Ref="R?"  Part="1" 
AR Path="/6003A36D/60F8CD0F" Ref="R?"  Part="1" 
AR Path="/60EDB96D/60F8CD0F" Ref="R?"  Part="1" 
AR Path="/60F84ABC/60F8CD0F" Ref="R?"  Part="1" 
F 0 "R?" V 4500 2190 50  0000 C CNN
F 1 "10k" V 4500 2380 50  0000 C CNN
F 2 "Resistor_SMD:R_0805_2012Metric" V 4520 2310 50  0001 C CNN
F 3 "~" H 4590 2310 50  0001 C CNN
	1    4590 2310
	0    1    1    0   
$EndComp
Wire Wire Line
	5040 2310 5040 2490
Connection ~ 5040 2490
Wire Wire Line
	5040 2490 5150 2490
Wire Wire Line
	5040 2660 5040 2840
Connection ~ 5040 2840
Wire Wire Line
	5040 2840 5250 2840
Wire Wire Line
	5040 3010 5040 3190
Connection ~ 5040 3190
Wire Wire Line
	5040 3190 5350 3190
Wire Wire Line
	5040 3360 5040 3540
Connection ~ 5040 3540
Wire Wire Line
	5040 3540 5450 3540
Wire Wire Line
	5040 3710 5040 3890
Connection ~ 5040 3890
Wire Wire Line
	5040 3890 5550 3890
Wire Wire Line
	5040 4060 5040 4240
Connection ~ 5040 4240
Wire Wire Line
	5040 4240 5650 4240
Wire Wire Line
	5040 4440 5040 4620
Connection ~ 5040 4620
Wire Wire Line
	5040 4620 5750 4620
Wire Wire Line
	5040 4790 5040 4970
Connection ~ 5040 4970
Wire Wire Line
	5040 4970 5850 4970
$Comp
L power:VCC #PWR?
U 1 1 60F8CD2D
P 4050 2110
AR Path="/60EDB96D/60F8CD2D" Ref="#PWR?"  Part="1" 
AR Path="/60F84ABC/60F8CD2D" Ref="#PWR?"  Part="1" 
F 0 "#PWR?" H 4050 1960 50  0001 C CNN
F 1 "VCC" H 4065 2283 50  0000 C CNN
F 2 "" H 4050 2110 50  0001 C CNN
F 3 "" H 4050 2110 50  0001 C CNN
	1    4050 2110
	1    0    0    -1  
$EndComp
Wire Wire Line
	4440 2310 4050 2310
Wire Wire Line
	4050 2310 4050 2110
Wire Wire Line
	4050 2310 4050 2660
Wire Wire Line
	4050 2660 4440 2660
Connection ~ 4050 2310
Wire Wire Line
	4050 2660 4050 3010
Wire Wire Line
	4050 3010 4440 3010
Connection ~ 4050 2660
Wire Wire Line
	4050 3010 4050 3360
Wire Wire Line
	4050 3360 4440 3360
Connection ~ 4050 3010
Wire Wire Line
	4050 3360 4050 3710
Wire Wire Line
	4050 3710 4440 3710
Connection ~ 4050 3360
Wire Wire Line
	4050 3710 4050 4060
Wire Wire Line
	4050 4060 4440 4060
Connection ~ 4050 3710
Wire Wire Line
	4050 4060 4050 4440
Wire Wire Line
	4050 4440 4440 4440
Connection ~ 4050 4060
Wire Wire Line
	4050 4440 4050 4790
Wire Wire Line
	4050 4790 4440 4790
Connection ~ 4050 4440
$Comp
L Switch:SW_Push SW?
U 1 1 60F8CD4A
P 6660 4970
AR Path="/60EDB96D/60F8CD4A" Ref="SW?"  Part="1" 
AR Path="/60F84ABC/60F8CD4A" Ref="SW?"  Part="1" 
F 0 "SW?" H 6660 5150 50  0000 C CNN
F 1 "SW_Push" H 6770 5120 50  0001 C CNN
F 2 "Button_Switch_SMD:SW_SPST_SKQG_WithStem" H 6660 5170 50  0001 C CNN
F 3 "~" H 6660 5170 50  0001 C CNN
	1    6660 4970
	1    0    0    -1  
$EndComp
$Comp
L Switch:SW_Push SW?
U 1 1 60F8CD50
P 6660 4620
AR Path="/60EDB96D/60F8CD50" Ref="SW?"  Part="1" 
AR Path="/60F84ABC/60F8CD50" Ref="SW?"  Part="1" 
F 0 "SW?" H 6660 4800 50  0000 C CNN
F 1 "SW_Push" H 6770 4770 50  0001 C CNN
F 2 "Button_Switch_SMD:SW_SPST_SKQG_WithStem" H 6660 4820 50  0001 C CNN
F 3 "~" H 6660 4820 50  0001 C CNN
	1    6660 4620
	1    0    0    -1  
$EndComp
$Comp
L Switch:SW_Push SW?
U 1 1 60F8CD56
P 6660 4240
AR Path="/60EDB96D/60F8CD56" Ref="SW?"  Part="1" 
AR Path="/60F84ABC/60F8CD56" Ref="SW?"  Part="1" 
F 0 "SW?" H 6660 4420 50  0000 C CNN
F 1 "SW_Push" H 6770 4390 50  0001 C CNN
F 2 "Button_Switch_SMD:SW_SPST_SKQG_WithStem" H 6660 4440 50  0001 C CNN
F 3 "~" H 6660 4440 50  0001 C CNN
	1    6660 4240
	1    0    0    -1  
$EndComp
$Comp
L Switch:SW_Push SW?
U 1 1 60F8CD5C
P 6660 3890
AR Path="/60EDB96D/60F8CD5C" Ref="SW?"  Part="1" 
AR Path="/60F84ABC/60F8CD5C" Ref="SW?"  Part="1" 
F 0 "SW?" H 6660 4070 50  0000 C CNN
F 1 "SW_Push" H 6770 4040 50  0001 C CNN
F 2 "Button_Switch_SMD:SW_SPST_SKQG_WithStem" H 6660 4090 50  0001 C CNN
F 3 "~" H 6660 4090 50  0001 C CNN
	1    6660 3890
	1    0    0    -1  
$EndComp
$Comp
L Switch:SW_Push SW?
U 1 1 60F8CD62
P 6660 3540
AR Path="/60EDB96D/60F8CD62" Ref="SW?"  Part="1" 
AR Path="/60F84ABC/60F8CD62" Ref="SW?"  Part="1" 
F 0 "SW?" H 6660 3720 50  0000 C CNN
F 1 "SW_Push" H 6770 3690 50  0001 C CNN
F 2 "Button_Switch_SMD:SW_SPST_SKQG_WithStem" H 6660 3740 50  0001 C CNN
F 3 "~" H 6660 3740 50  0001 C CNN
	1    6660 3540
	1    0    0    -1  
$EndComp
$Comp
L Switch:SW_Push SW?
U 1 1 60F8CD68
P 6660 3190
AR Path="/60EDB96D/60F8CD68" Ref="SW?"  Part="1" 
AR Path="/60F84ABC/60F8CD68" Ref="SW?"  Part="1" 
F 0 "SW?" H 6660 3370 50  0000 C CNN
F 1 "SW_Push" H 6770 3340 50  0001 C CNN
F 2 "Button_Switch_SMD:SW_SPST_SKQG_WithStem" H 6660 3390 50  0001 C CNN
F 3 "~" H 6660 3390 50  0001 C CNN
	1    6660 3190
	1    0    0    -1  
$EndComp
$Comp
L Switch:SW_Push SW?
U 1 1 60F8CD6E
P 6660 2840
AR Path="/60EDB96D/60F8CD6E" Ref="SW?"  Part="1" 
AR Path="/60F84ABC/60F8CD6E" Ref="SW?"  Part="1" 
F 0 "SW?" H 6660 3020 50  0000 C CNN
F 1 "SW_Push" H 6770 2990 50  0001 C CNN
F 2 "Button_Switch_SMD:SW_SPST_SKQG_WithStem" H 6660 3040 50  0001 C CNN
F 3 "~" H 6660 3040 50  0001 C CNN
	1    6660 2840
	1    0    0    -1  
$EndComp
$Comp
L Switch:SW_Push SW?
U 1 1 60F8CD74
P 6660 2490
AR Path="/60EDB96D/60F8CD74" Ref="SW?"  Part="1" 
AR Path="/60F84ABC/60F8CD74" Ref="SW?"  Part="1" 
F 0 "SW?" H 6660 2670 50  0000 C CNN
F 1 "SW_Push" H 6770 2640 50  0001 C CNN
F 2 "Button_Switch_SMD:SW_SPST_SKQG_WithStem" H 6660 2690 50  0001 C CNN
F 3 "~" H 6660 2690 50  0001 C CNN
	1    6660 2490
	1    0    0    -1  
$EndComp
Wire Wire Line
	5150 2490 5150 5290
Wire Wire Line
	5250 2840 5250 5290
Wire Wire Line
	5350 3190 5350 5290
Wire Wire Line
	5450 3540 5450 5290
Wire Wire Line
	5550 3890 5550 5290
Wire Wire Line
	5650 4240 5650 5290
Wire Wire Line
	5750 4620 5750 5290
Wire Wire Line
	5850 4970 5850 5290
Wire Wire Line
	5050 5250 5050 5290
$Comp
L Connector_Generic:Conn_01x10 J?
U 1 1 60F8CD84
P 5350 5490
AR Path="/60EDB96D/60F8CD84" Ref="J?"  Part="1" 
AR Path="/60F84ABC/60F8CD84" Ref="J?"  Part="1" 
F 0 "J?" V 5350 4840 50  0000 C CNN
F 1 "Conn_01x10" V 5566 5436 50  0001 C CNN
F 2 "Connector_JST:JST_PH_B10B-PH-K_1x10_P2.00mm_Vertical" H 5350 5490 50  0001 C CNN
F 3 "~" H 5350 5490 50  0001 C CNN
	1    5350 5490
	0    -1   1    0   
$EndComp
Wire Wire Line
	6960 4970 6960 5290
$Comp
L power:GND #PWR?
U 1 1 60F8CD8B
P 4690 5260
AR Path="/5FDB8EF8/60F8CD8B" Ref="#PWR?"  Part="1" 
AR Path="/6003A36D/60F8CD8B" Ref="#PWR?"  Part="1" 
AR Path="/60F8CD8B" Ref="#PWR?"  Part="1" 
AR Path="/60EDB96D/60F8CD8B" Ref="#PWR?"  Part="1" 
AR Path="/60F84ABC/60F8CD8B" Ref="#PWR?"  Part="1" 
F 0 "#PWR?" H 4690 5010 50  0001 C CNN
F 1 "GND" H 4695 5087 50  0000 C CNN
F 2 "" H 4690 5260 50  0001 C CNN
F 3 "" H 4690 5260 50  0001 C CNN
	1    4690 5260
	1    0    0    -1  
$EndComp
Wire Wire Line
	4950 5290 4950 5180
Wire Wire Line
	4950 5180 4690 5180
Wire Wire Line
	4690 5180 4690 5260
Text HLabel 5000 2490 0    50   Output ~ 0
BTN_1
Text HLabel 5000 2840 0    50   Output ~ 0
BTN_2
Text HLabel 5000 3190 0    50   Output ~ 0
BTN_3
Text HLabel 5000 3540 0    50   Output ~ 0
BTN_4
Text HLabel 5000 3890 0    50   Output ~ 0
BTN_5
Text HLabel 5000 4240 0    50   Output ~ 0
BTN_6
Text HLabel 5000 4620 0    50   Output ~ 0
BTN_7
Text HLabel 5000 4970 0    50   Output ~ 0
BTN_8
NoConn ~ 5050 5250
$EndSCHEMATC
