EESchema Schematic File Version 4
LIBS:test_project-cache
EELAYER 29 0
EELAYER END
$Descr A4 11693 8268
encoding utf-8
Sheet 8 23
Title ""
Date ""
Rev ""
Comp ""
Comment1 ""
Comment2 ""
Comment3 ""
Comment4 ""
$EndDescr
$Comp
L RF_Module:ESP-12E U?
U 1 1 5DA4285A
P 6160 3900
F 0 "U?" H 5880 4690 50  0000 C CNN
F 1 "ESP-12E" H 6470 4700 50  0000 C CNN
F 2 "RF_Module:ESP-12E" H 6160 3900 50  0001 C CNN
F 3 "http://wiki.ai-thinker.com/_media/esp8266/esp8266_series_modules_user_manual_v1.1.pdf" H 5810 4000 50  0001 C CNN
	1    6160 3900
	1    0    0    -1  
$EndComp
$Comp
L power:GND #PWR?
U 1 1 5DA59AC0
P 6160 4700
F 0 "#PWR?" H 6160 4450 50  0001 C CNN
F 1 "GND" H 6165 4527 50  0000 C CNN
F 2 "" H 6160 4700 50  0001 C CNN
F 3 "" H 6160 4700 50  0001 C CNN
	1    6160 4700
	1    0    0    -1  
$EndComp
Wire Wire Line
	6160 4700 6160 4600
$Comp
L power:+3.3V #PWR?
U 1 1 5DA7F716
P 6160 2760
F 0 "#PWR?" H 6160 2610 50  0001 C CNN
F 1 "+3.3V" H 6175 2933 50  0000 C CNN
F 2 "" H 6160 2760 50  0001 C CNN
F 3 "" H 6160 2760 50  0001 C CNN
	1    6160 2760
	1    0    0    -1  
$EndComp
Wire Wire Line
	6160 3100 6160 2760
$Comp
L Device:R R?
U 1 1 5DA80570
P 5330 3500
F 0 "R?" V 5240 3420 50  0000 C CNN
F 1 "10k" V 5240 3590 50  0000 C CNN
F 2 "Resistor_SMD:R_0805_2012Metric" V 5260 3500 50  0001 C CNN
F 3 "~" H 5330 3500 50  0001 C CNN
	1    5330 3500
	0    1    1    0   
$EndComp
$Comp
L Device:R R?
U 1 1 5DA81482
P 7530 4200
F 0 "R?" V 7440 4120 50  0000 C CNN
F 1 "10k" V 7440 4290 50  0000 C CNN
F 2 "Resistor_SMD:R_0805_2012Metric" V 7460 4200 50  0001 C CNN
F 3 "~" H 7530 4200 50  0001 C CNN
	1    7530 4200
	0    1    1    0   
$EndComp
Wire Wire Line
	5180 3500 5060 3500
Wire Wire Line
	5560 3500 5480 3500
$Comp
L power:GND #PWR?
U 1 1 5DA8A733
P 7970 4200
F 0 "#PWR?" H 7970 3950 50  0001 C CNN
F 1 "GND" V 7975 4072 50  0000 R CNN
F 2 "" H 7970 4200 50  0001 C CNN
F 3 "" H 7970 4200 50  0001 C CNN
	1    7970 4200
	0    -1   -1   0   
$EndComp
Wire Wire Line
	7970 4200 7680 4200
Wire Wire Line
	7200 3400 6760 3400
Wire Wire Line
	6760 3600 7200 3600
$Comp
L Device:R R?
U 1 1 5DA8CDBF
P 6910 2930
F 0 "R?" V 6820 2850 50  0000 C CNN
F 1 "10k" V 6820 3020 50  0000 C CNN
F 2 "Resistor_SMD:R_0805_2012Metric" V 6840 2930 50  0001 C CNN
F 3 "~" H 6910 2930 50  0001 C CNN
	1    6910 2930
	-1   0    0    1   
$EndComp
Wire Wire Line
	6160 2760 6910 2760
Wire Wire Line
	6910 2760 6910 2780
Connection ~ 6160 2760
Wire Wire Line
	6760 3300 6910 3300
Wire Wire Line
	6910 3300 6910 3080
Wire Wire Line
	7200 3300 6910 3300
Connection ~ 6910 3300
Wire Wire Line
	8050 3700 7980 3700
Wire Wire Line
	6760 3800 7980 3800
$Comp
L power:GND #PWR?
U 1 1 5DAF0707
P 2150 2220
F 0 "#PWR?" H 2150 1970 50  0001 C CNN
F 1 "GND" H 2155 2047 50  0000 C CNN
F 2 "" H 2150 2220 50  0001 C CNN
F 3 "" H 2150 2220 50  0001 C CNN
	1    2150 2220
	1    0    0    -1  
$EndComp
NoConn ~ 5560 3900
NoConn ~ 5560 4000
NoConn ~ 5560 4200
NoConn ~ 5560 4300
NoConn ~ 5560 4400
$Comp
L power:+3.3V #PWR?
U 1 1 5DB1097F
P 970 6550
F 0 "#PWR?" H 970 6400 50  0001 C CNN
F 1 "+3.3V" H 985 6723 50  0000 C CNN
F 2 "" H 970 6550 50  0001 C CNN
F 3 "" H 970 6550 50  0001 C CNN
	1    970  6550
	1    0    0    -1  
$EndComp
$Comp
L power:GND #PWR?
U 1 1 5DB111F1
P 970 7120
F 0 "#PWR?" H 970 6870 50  0001 C CNN
F 1 "GND" H 975 6947 50  0000 C CNN
F 2 "" H 970 7120 50  0001 C CNN
F 3 "" H 970 7120 50  0001 C CNN
	1    970  7120
	1    0    0    -1  
$EndComp
Wire Wire Line
	970  7120 970  7050
Wire Wire Line
	970  6610 970  6550
Text Notes 640  6060 0    101  ~ 20
Capacitors
Wire Wire Line
	6760 3900 6900 3900
$Comp
L Device:C C?
U 1 1 5DBDE9FF
P 1400 6900
F 0 "C?" H 1515 6946 50  0000 L CNN
F 1 "100nF" H 1515 6855 50  0000 L CNN
F 2 "Capacitor_SMD:C_0805_2012Metric" H 1438 6750 50  0001 C CNN
F 3 "~" H 1400 6900 50  0001 C CNN
	1    1400 6900
	1    0    0    -1  
$EndComp
$Comp
L Device:C C?
U 1 1 5DBF6A88
P 1890 6900
F 0 "C?" H 2005 6946 50  0000 L CNN
F 1 "100uF" H 2005 6855 50  0000 L CNN
F 2 "Capacitor_SMD:C_1206_3216Metric" H 1928 6750 50  0001 C CNN
F 3 "~" H 1890 6900 50  0001 C CNN
	1    1890 6900
	1    0    0    -1  
$EndComp
$Comp
L power:+3.3V #PWR?
U 1 1 5DA9F453
P 5060 3500
F 0 "#PWR?" H 5060 3350 50  0001 C CNN
F 1 "+3.3V" V 5075 3628 50  0000 L CNN
F 2 "" H 5060 3500 50  0001 C CNN
F 3 "" H 5060 3500 50  0001 C CNN
	1    5060 3500
	0    -1   -1   0   
$EndComp
$Comp
L Device:C C?
U 1 1 5DC09A7A
P 2390 6900
F 0 "C?" H 2505 6946 50  0000 L CNN
F 1 "100uF" H 2505 6855 50  0000 L CNN
F 2 "Capacitor_SMD:C_1206_3216Metric" H 2428 6750 50  0001 C CNN
F 3 "~" H 2390 6900 50  0001 C CNN
	1    2390 6900
	1    0    0    -1  
$EndComp
$Comp
L Device:C C?
U 1 1 5DB91792
P 2830 6900
F 0 "C?" H 2945 6946 50  0000 L CNN
F 1 "100nF" H 2945 6855 50  0000 L CNN
F 2 "Capacitor_SMD:C_0805_2012Metric" H 2868 6750 50  0001 C CNN
F 3 "~" H 2830 6900 50  0001 C CNN
	1    2830 6900
	1    0    0    -1  
$EndComp
Wire Notes Line
	490  5720 3290 5720
Wire Wire Line
	970  7050 1400 7050
Connection ~ 1400 7050
Wire Wire Line
	1400 7050 1890 7050
Connection ~ 1890 7050
Wire Wire Line
	1890 7050 2390 7050
Connection ~ 2390 7050
Wire Wire Line
	2390 7050 2830 7050
Wire Wire Line
	6760 4000 6900 4000
Wire Wire Line
	970  6610 1400 6610
Wire Wire Line
	2830 6750 2830 6610
Wire Wire Line
	2390 6750 2390 6610
Connection ~ 2390 6610
Wire Wire Line
	2390 6610 2830 6610
Wire Wire Line
	1890 6750 1890 6610
Connection ~ 1890 6610
Wire Wire Line
	1890 6610 2390 6610
Wire Wire Line
	1400 6750 1400 6610
Connection ~ 1400 6610
Wire Wire Line
	1400 6610 1890 6610
Wire Wire Line
	6760 4300 6900 4300
Text Label 6900 4300 0    50   ~ 0
Encoder_B
Wire Wire Line
	5370 3300 5560 3300
NoConn ~ 5560 4100
Text Label 8050 3800 0    50   ~ 0
SCL_LOW
Text Label 8050 3700 0    50   ~ 0
SDA_LOW
$Comp
L Device:Buzzer BZ?
U 1 1 5DE995BD
P 2250 1520
F 0 "BZ?" H 2402 1549 50  0000 L CNN
F 1 "Buzzer" H 2402 1458 50  0000 L CNN
F 2 "Buzzer_Beeper:Buzzer_12x9.5RM7.6" V 2225 1620 50  0001 C CNN
F 3 "~" V 2225 1620 50  0001 C CNN
	1    2250 1520
	1    0    0    -1  
$EndComp
$Comp
L Transistor_FET:2N7002 Q?
U 1 1 5DE9BD9C
P 2050 1920
F 0 "Q?" V 2280 1740 50  0000 C CNN
F 1 "2N7002" V 2280 1990 50  0000 C CNN
F 2 "Package_TO_SOT_SMD:SOT-23" H 2250 1845 50  0001 L CIN
F 3 "https://www.fairchildsemi.com/datasheets/2N/2N7002.pdf" H 2050 1920 50  0001 L CNN
	1    2050 1920
	1    0    0    -1  
$EndComp
Wire Wire Line
	6760 4100 6900 4100
$Comp
L Device:R R?
U 1 1 5DE9B6AA
P 2150 1180
F 0 "R?" V 2060 1100 50  0000 C CNN
F 1 "100" V 2060 1270 50  0000 C CNN
F 2 "Resistor_SMD:R_0805_2012Metric" V 2080 1180 50  0001 C CNN
F 3 "~" H 2150 1180 50  0001 C CNN
	1    2150 1180
	1    0    0    -1  
$EndComp
Text Label 6900 4100 0    50   ~ 0
Buzzer
Text Label 1370 1920 2    50   ~ 0
Buzzer
$Comp
L Device:R R?
U 1 1 5DEB9401
P 1620 1920
F 0 "R?" V 1530 1840 50  0000 C CNN
F 1 "100" V 1530 2010 50  0000 C CNN
F 2 "Resistor_SMD:R_0805_2012Metric" V 1550 1920 50  0001 C CNN
F 3 "~" H 1620 1920 50  0001 C CNN
	1    1620 1920
	0    1    1    0   
$EndComp
Wire Wire Line
	1470 1920 1450 1920
Wire Wire Line
	1770 1920 1850 1920
Wire Wire Line
	2150 1720 2150 1620
Wire Wire Line
	2150 1330 2150 1420
$Comp
L power:+5V #PWR?
U 1 1 5DEDAB83
P 2150 1000
F 0 "#PWR?" H 2150 850 50  0001 C CNN
F 1 "+5V" H 2165 1173 50  0000 C CNN
F 2 "" H 2150 1000 50  0001 C CNN
F 3 "" H 2150 1000 50  0001 C CNN
	1    2150 1000
	1    0    0    -1  
$EndComp
Wire Wire Line
	2150 1030 2150 1000
Wire Wire Line
	2150 2220 2150 2120
$Comp
L Device:R R?
U 1 1 5E2B5C5C
P 1450 2220
F 0 "R?" V 1360 2140 50  0000 C CNN
F 1 "4k7" V 1360 2310 50  0000 C CNN
F 2 "Resistor_SMD:R_0805_2012Metric" V 1380 2220 50  0001 C CNN
F 3 "~" H 1450 2220 50  0001 C CNN
	1    1450 2220
	-1   0    0    1   
$EndComp
Wire Wire Line
	1450 2070 1450 1920
Connection ~ 1450 1920
Wire Wire Line
	1450 1920 1370 1920
$Comp
L power:GND #PWR?
U 1 1 5E2BF8C4
P 1450 2420
F 0 "#PWR?" H 1450 2170 50  0001 C CNN
F 1 "GND" H 1455 2247 50  0000 C CNN
F 2 "" H 1450 2420 50  0001 C CNN
F 3 "" H 1450 2420 50  0001 C CNN
	1    1450 2420
	1    0    0    -1  
$EndComp
Wire Wire Line
	1450 2420 1450 2370
Wire Notes Line
	3310 470  3310 7790
Wire Notes Line
	470  2780 3320 2780
Text Label 6900 3900 0    50   ~ 0
Encoder_Button
Text Notes 750  820  0    101  ~ 20
Buzzer\n
$Comp
L Device:Rotary_Encoder_Switch SW?
U 1 1 5FE5344D
P 2000 4930
F 0 "SW?" H 2000 5297 50  0000 C CNN
F 1 "Rotary_Encoder_Switch" H 2000 5206 50  0000 C CNN
F 2 "Rotary_Encoder:RotaryEncoder_Alps_EC11E-Switch_Vertical_H20mm" H 1850 5090 50  0001 C CNN
F 3 "~" H 2000 5190 50  0001 C CNN
	1    2000 4930
	1    0    0    -1  
$EndComp
Text Label 6900 4000 0    50   ~ 0
Encoder_A
Wire Wire Line
	6760 4200 7380 4200
Wire Wire Line
	1670 3680 1840 3680
Wire Wire Line
	1670 3880 1840 3880
$Comp
L power:GND #PWR?
U 1 1 5FE7D785
P 1670 4050
F 0 "#PWR?" H 1670 3800 50  0001 C CNN
F 1 "GND" H 1675 3877 50  0000 C CNN
F 2 "" H 1670 4050 50  0001 C CNN
F 3 "" H 1670 4050 50  0001 C CNN
	1    1670 4050
	1    0    0    -1  
$EndComp
$Comp
L Connector_Generic:Conn_01x04 J?
U 1 1 5FE944B9
P 2040 3780
F 0 "J?" H 2120 3772 50  0000 L CNN
F 1 "Conn_01x04" H 2120 3681 50  0000 L CNN
F 2 "Connector_JST:JST_PH_B4B-PH-K_1x04_P2.00mm_Vertical" H 2040 3780 50  0001 C CNN
F 3 "~" H 2040 3780 50  0001 C CNN
	1    2040 3780
	1    0    0    -1  
$EndComp
Text Label 1670 3680 2    50   ~ 0
Encoder_A
Text Label 1660 3780 2    50   ~ 0
Encoder_B
Text Label 1670 3880 2    50   ~ 0
Encoder_Button
Wire Wire Line
	1840 3780 1660 3780
Wire Wire Line
	1670 4050 1670 3980
Wire Wire Line
	1670 3980 1840 3980
Text Label 1650 4830 2    50   ~ 0
Encoder_A
Text Label 1650 5030 2    50   ~ 0
Encoder_B
$Comp
L power:GND #PWR?
U 1 1 5FEBFA2E
P 1060 5010
F 0 "#PWR?" H 1060 4760 50  0001 C CNN
F 1 "GND" H 1065 4837 50  0000 C CNN
F 2 "" H 1060 5010 50  0001 C CNN
F 3 "" H 1060 5010 50  0001 C CNN
	1    1060 5010
	1    0    0    -1  
$EndComp
Wire Wire Line
	1060 5010 1060 4930
Wire Wire Line
	1060 4930 1700 4930
Text Label 2370 4830 0    50   ~ 0
Encoder_Button
$Comp
L power:GND #PWR?
U 1 1 5FED137D
P 2380 5090
F 0 "#PWR?" H 2380 4840 50  0001 C CNN
F 1 "GND" H 2385 4917 50  0000 C CNN
F 2 "" H 2380 5090 50  0001 C CNN
F 3 "" H 2380 5090 50  0001 C CNN
	1    2380 5090
	1    0    0    -1  
$EndComp
Wire Wire Line
	2300 5030 2380 5030
Wire Wire Line
	2380 5030 2380 5090
Wire Wire Line
	2300 4830 2370 4830
Wire Wire Line
	1650 5030 1700 5030
Wire Wire Line
	1650 4830 1700 4830
Text HLabel 5370 3300 0    50   Input ~ 0
RST
Text Notes 770  3210 0    101  ~ 20
Rotary Encoder
Text HLabel 8060 3570 2    50   BiDi ~ 0
SDA
Text HLabel 8070 3890 2    50   Output ~ 0
SCL
Wire Wire Line
	8070 3890 7980 3890
Wire Wire Line
	7980 3890 7980 3800
Connection ~ 7980 3800
Wire Wire Line
	7980 3800 8050 3800
Wire Wire Line
	8060 3570 7980 3570
Wire Wire Line
	7980 3570 7980 3700
Connection ~ 7980 3700
Wire Wire Line
	7980 3700 6760 3700
Wire Wire Line
	7200 3500 6760 3500
$Comp
L Device:R_POT RV?
U 1 1 5FD90207
P 10220 1840
F 0 "RV?" H 10120 1950 50  0000 R CNN
F 1 "50k" H 10110 1780 50  0000 R CNN
F 2 "Potentiometer_THT:Potentiometer_Piher_T-16H_Single_Horizontal" H 10220 1840 50  0001 C CNN
F 3 "~" H 10220 1840 50  0001 C CNN
	1    10220 1840
	-1   0    0    -1  
$EndComp
Text Label 5450 3700 2    50   ~ 0
Poti_Input
Wire Wire Line
	5450 3700 5560 3700
Text Label 9980 1790 2    50   ~ 0
Poti_Input
$Comp
L Device:R R?
U 1 1 5FD980E0
P 10220 1430
F 0 "R?" H 10080 1350 50  0000 C CNN
F 1 "100k" H 10060 1520 50  0000 C CNN
F 2 "Resistor_SMD:R_0805_2012Metric" V 10150 1430 50  0001 C CNN
F 3 "~" H 10220 1430 50  0001 C CNN
	1    10220 1430
	-1   0    0    1   
$EndComp
Wire Wire Line
	10220 1690 10220 1630
$Comp
L power:+3.3V #PWR?
U 1 1 5FD9C05E
P 10220 1200
F 0 "#PWR?" H 10220 1050 50  0001 C CNN
F 1 "+3.3V" H 10210 1380 50  0000 C CNN
F 2 "" H 10220 1200 50  0001 C CNN
F 3 "" H 10220 1200 50  0001 C CNN
	1    10220 1200
	1    0    0    -1  
$EndComp
$Comp
L power:GND #PWR?
U 1 1 5FD9D2F2
P 10220 2060
F 0 "#PWR?" H 10220 1810 50  0001 C CNN
F 1 "GND" H 10225 1887 50  0000 C CNN
F 2 "" H 10220 2060 50  0001 C CNN
F 3 "" H 10220 2060 50  0001 C CNN
	1    10220 2060
	1    0    0    -1  
$EndComp
Text Notes 9260 850  0    101  ~ 20
Anlaog Input
Wire Wire Line
	10220 1280 10220 1200
$Comp
L Connector_Generic:Conn_01x03 J?
U 1 1 5FDB1213
P 9260 1840
F 0 "J?" H 9178 2065 50  0000 C CNN
F 1 "Conn_01x03" H 9178 2066 50  0001 C CNN
F 2 "Connector_JST:JST_PH_B3B-PH-K_1x03_P2.00mm_Vertical" H 9260 1840 50  0001 C CNN
F 3 "~" H 9260 1840 50  0001 C CNN
	1    9260 1840
	-1   0    0    -1  
$EndComp
Wire Wire Line
	9460 1740 9530 1740
Wire Wire Line
	9530 1740 9530 1630
Wire Wire Line
	9530 1630 10220 1630
Connection ~ 10220 1630
Wire Wire Line
	10220 1630 10220 1580
Wire Wire Line
	10070 1840 9980 1840
Wire Wire Line
	10220 2020 9530 2020
Wire Wire Line
	10220 1990 10220 2020
Connection ~ 10220 2020
Wire Wire Line
	10220 2020 10220 2060
Wire Wire Line
	9530 2020 9530 1940
Wire Wire Line
	9530 1940 9460 1940
Wire Wire Line
	9980 1790 9980 1840
Connection ~ 9980 1840
Wire Wire Line
	9980 1840 9460 1840
$EndSCHEMATC
