EESchema Schematic File Version 4
LIBS:test_project-cache
EELAYER 29 0
EELAYER END
$Descr A4 11693 8268
encoding utf-8
Sheet 6 23
Title ""
Date ""
Rev ""
Comp ""
Comment1 ""
Comment2 ""
Comment3 ""
Comment4 ""
$EndDescr
$Comp
L Device:Q_NPN_BEC Q?
U 1 1 61138622
P 1950 1690
F 0 "Q?" H 2141 1736 50  0000 L CNN
F 1 "Q_NPN_BEC" H 2141 1645 50  0000 L CNN
F 2 "Package_TO_SOT_SMD:SOT-23" H 2150 1790 50  0001 C CNN
F 3 "~" H 1950 1690 50  0001 C CNN
	1    1950 1690
	1    0    0    -1  
$EndComp
$Comp
L Device:Q_NPN_BEC Q?
U 1 1 61138623
P 1950 2390
F 0 "Q?" H 2141 2344 50  0000 L CNN
F 1 "Q_NPN_BEC" H 2141 2435 50  0000 L CNN
F 2 "Package_TO_SOT_SMD:SOT-23" H 2150 2490 50  0001 C CNN
F 3 "~" H 1950 2390 50  0001 C CNN
	1    1950 2390
	1    0    0    1   
$EndComp
$Comp
L Device:R R?
U 1 1 61138624
P 1340 1690
F 0 "R?" V 1250 1610 50  0000 C CNN
F 1 "12k" V 1250 1780 50  0000 C CNN
F 2 "Resistor_SMD:R_0805_2012Metric" V 1270 1690 50  0001 C CNN
F 3 "~" H 1340 1690 50  0001 C CNN
	1    1340 1690
	0    1    1    0   
$EndComp
$Comp
L Device:R R?
U 1 1 61138625
P 1350 2390
F 0 "R?" V 1260 2310 50  0000 C CNN
F 1 "12k" V 1260 2480 50  0000 C CNN
F 2 "Resistor_SMD:R_0805_2012Metric" V 1280 2390 50  0001 C CNN
F 3 "~" H 1350 2390 50  0001 C CNN
	1    1350 2390
	0    1    1    0   
$EndComp
Wire Wire Line
	1490 1690 1750 1690
Wire Wire Line
	1200 2390 1040 2390
Wire Wire Line
	1750 2390 1500 2390
Wire Wire Line
	1110 1690 1110 2090
Wire Wire Line
	1110 2090 2050 2090
Wire Wire Line
	2050 2090 2050 2190
Wire Wire Line
	950  1690 1110 1690
Connection ~ 1110 1690
Wire Wire Line
	1110 1690 1190 1690
Wire Wire Line
	1040 2390 1040 1890
Wire Wire Line
	1040 1890 2050 1890
Connection ~ 1040 2390
Wire Wire Line
	2050 2590 2050 2690
Wire Wire Line
	2050 2690 2610 2690
Wire Wire Line
	2050 1390 2650 1390
Wire Wire Line
	2050 1390 2050 1490
Wire Notes Line
	3110 3470 470  3470
Text Notes 770  1000 0    101  ~ 20
ESP Reset Circuit
Wire Notes Line
	3120 5460 480  5460
Wire Notes Line
	3110 470  3110 7790
$Comp
L power:GND #PWR?
U 1 1 61138627
P 2030 6930
F 0 "#PWR?" H 2030 6680 50  0001 C CNN
F 1 "GND" H 2035 6757 50  0000 C CNN
F 2 "" H 2030 6930 50  0001 C CNN
F 3 "" H 2030 6930 50  0001 C CNN
	1    2030 6930
	1    0    0    -1  
$EndComp
Wire Wire Line
	1850 6860 2030 6860
Wire Wire Line
	2030 6860 2030 6930
Wire Wire Line
	1260 6370 1260 6440
Text Notes 810  5930 0    101  ~ 20
Manual Reset Switch
$Comp
L Switch:SW_Push SW?
U 1 1 61138628
P 1650 6860
F 0 "SW?" H 1650 7145 50  0000 C CNN
F 1 "SW_Push" H 1650 7054 50  0000 C CNN
F 2 "Button_Switch_SMD:SW_SPST_SKQG_WithStem" H 1650 7060 50  0001 C CNN
F 3 "~" H 1650 7060 50  0001 C CNN
	1    1650 6860
	1    0    0    -1  
$EndComp
Wire Wire Line
	1450 6860 1440 6860
Wire Wire Line
	1260 6740 1260 6860
$Comp
L Device:R R?
U 1 1 61138626
P 1260 6590
F 0 "R?" V 1170 6510 50  0000 C CNN
F 1 "1k" V 1170 6680 50  0000 C CNN
F 2 "Resistor_SMD:R_0805_2012Metric" V 1190 6590 50  0001 C CNN
F 3 "~" H 1260 6590 50  0001 C CNN
	1    1260 6590
	-1   0    0    1   
$EndComp
$Comp
L power:GND #PWR?
U 1 1 5DD6DEA7
P 5000 4660
F 0 "#PWR?" H 5000 4410 50  0001 C CNN
F 1 "GND" H 5005 4487 50  0000 C CNN
F 2 "" H 5000 4660 50  0001 C CNN
F 3 "" H 5000 4660 50  0001 C CNN
	1    5000 4660
	1    0    0    -1  
$EndComp
Wire Wire Line
	5000 4660 5000 4630
$Comp
L power:GND #PWR?
U 1 1 5DD6EFFA
P 6740 5040
F 0 "#PWR?" H 6740 4790 50  0001 C CNN
F 1 "GND" H 6745 4867 50  0000 C CNN
F 2 "" H 6740 5040 50  0001 C CNN
F 3 "" H 6740 5040 50  0001 C CNN
	1    6740 5040
	1    0    0    -1  
$EndComp
Wire Wire Line
	770  2390 1040 2390
Wire Wire Line
	5300 4190 5830 4190
Wire Wire Line
	5830 4190 5830 4070
Wire Wire Line
	5830 4070 6340 4070
Wire Wire Line
	5300 4290 5950 4290
Wire Wire Line
	5950 4290 5950 4170
Wire Wire Line
	5950 4170 6340 4170
Text HLabel 2650 1390 2    50   Input ~ 0
RST
Text HLabel 2610 2690 2    50   Input ~ 0
GPIO0
Text Label 950  1690 2    50   ~ 0
DTR
Text Label 770  2390 2    50   ~ 0
RTS
Text Label 7390 4470 0    50   ~ 0
DTR
Text Label 7390 4570 0    50   ~ 0
RTS
Wire Wire Line
	7140 4470 7390 4470
Wire Wire Line
	7140 4570 7390 4570
Text HLabel 1260 6370 1    50   Input ~ 0
RST
$Comp
L Device:Crystal Y?
U 1 1 6113862F
P 1500 4560
F 0 "Y?" H 1500 4828 50  0000 C CNN
F 1 "Crystal" H 1500 4737 50  0000 C CNN
F 2 "Crystal:Crystal_SMD_HC49-SD" H 1500 4560 50  0001 C CNN
F 3 "~" H 1500 4560 50  0001 C CNN
	1    1500 4560
	1    0    0    -1  
$EndComp
$Comp
L Device:C C?
U 1 1 5DDB5DAD
P 1190 4830
AR Path="/5DDB5DAD" Ref="C?"  Part="1" 
AR Path="/5DA7086F/5DDB5DAD" Ref="C?"  Part="1" 
AR Path="/5DE868BC/5DDB5DAD" Ref="C?"  Part="1" 
AR Path="/5FDB8EF8/5DE868BC/5DDB5DAD" Ref="C?"  Part="1" 
AR Path="/5FF15172/5DDB5DAD" Ref="C?"  Part="1" 
AR Path="/60EDB832/5DDB5DAD" Ref="C?"  Part="1" 
F 0 "C?" H 1368 4876 50  0000 L CNN
F 1 "22pF" H 1368 4785 50  0000 L CNN
F 2 "Capacitor_SMD:C_0805_2012Metric" H 1190 4830 50  0001 C CNN
F 3 "~" H 1190 4830 50  0001 C CNN
	1    1190 4830
	1    0    0    -1  
$EndComp
$Comp
L Device:C C?
U 1 1 5DDB5DB3
P 1770 4830
AR Path="/5DDB5DB3" Ref="C?"  Part="1" 
AR Path="/5DA7086F/5DDB5DB3" Ref="C?"  Part="1" 
AR Path="/5DE868BC/5DDB5DB3" Ref="C?"  Part="1" 
AR Path="/5FDB8EF8/5DE868BC/5DDB5DB3" Ref="C?"  Part="1" 
AR Path="/5FF15172/5DDB5DB3" Ref="C?"  Part="1" 
AR Path="/60EDB832/5DDB5DB3" Ref="C?"  Part="1" 
F 0 "C?" H 1948 4876 50  0000 L CNN
F 1 "22pF" H 1948 4785 50  0000 L CNN
F 2 "Capacitor_SMD:C_0805_2012Metric" H 1770 4830 50  0001 C CNN
F 3 "~" H 1770 4830 50  0001 C CNN
	1    1770 4830
	1    0    0    -1  
$EndComp
$Comp
L power:GND #PWR?
U 1 1 5DDB6715
P 1190 4980
F 0 "#PWR?" H 1190 4730 50  0001 C CNN
F 1 "GND" H 1195 4807 50  0000 C CNN
F 2 "" H 1190 4980 50  0001 C CNN
F 3 "" H 1190 4980 50  0001 C CNN
	1    1190 4980
	1    0    0    -1  
$EndComp
$Comp
L power:GND #PWR?
U 1 1 5DDB6FFF
P 1770 4980
F 0 "#PWR?" H 1770 4730 50  0001 C CNN
F 1 "GND" H 1775 4807 50  0000 C CNN
F 2 "" H 1770 4980 50  0001 C CNN
F 3 "" H 1770 4980 50  0001 C CNN
	1    1770 4980
	1    0    0    -1  
$EndComp
Wire Wire Line
	1770 4680 1770 4560
Wire Wire Line
	1770 4560 1650 4560
Wire Wire Line
	1190 4680 1190 4560
Wire Wire Line
	1190 4560 1350 4560
Wire Wire Line
	1770 4560 1770 4300
Wire Wire Line
	1770 4300 2590 4300
Connection ~ 1770 4560
Wire Wire Line
	1190 4560 1190 4140
Wire Wire Line
	1190 4140 2590 4140
Connection ~ 1190 4560
Text Label 2590 4140 0    50   ~ 0
XI
Text Label 2590 4300 0    50   ~ 0
XO
Text Label 6160 4370 2    50   ~ 0
XI
Wire Wire Line
	6340 4370 6160 4370
Wire Wire Line
	6340 4570 6160 4570
Text Label 6160 4570 2    50   ~ 0
XO
Text Notes 750  3810 0    101  ~ 20
Crystal Oscillator
NoConn ~ 7140 4070
NoConn ~ 7140 4170
NoConn ~ 7140 4270
NoConn ~ 7140 4370
Wire Wire Line
	6740 5040 6740 4770
$Comp
L Interface_USB:CH340G U?
U 1 1 6113863C
P 6740 4170
F 0 "U?" H 6500 3560 50  0000 C CNN
F 1 "CH340G" H 6970 3570 50  0000 C CNN
F 2 "Package_SO:SOIC-16_3.9x9.9mm_P1.27mm" H 6790 3620 50  0001 L CNN
F 3 "http://www.datasheet5.com/pdf-local-2195953" H 6390 4970 50  0001 C CNN
	1    6740 4170
	1    0    0    -1  
$EndComp
NoConn ~ 6340 3870
$Comp
L Device:R R?
U 1 1 5DDCF722
P 7690 3770
F 0 "R?" V 7600 3690 50  0000 C CNN
F 1 "470" V 7600 3860 50  0000 C CNN
F 2 "Resistor_SMD:R_0805_2012Metric" V 7620 3770 50  0001 C CNN
F 3 "~" H 7690 3770 50  0001 C CNN
	1    7690 3770
	0    1    1    0   
$EndComp
$Comp
L Device:R R?
U 1 1 5DDD0556
P 7690 3870
F 0 "R?" V 7600 3790 50  0000 C CNN
F 1 "470" V 7600 3960 50  0000 C CNN
F 2 "Resistor_SMD:R_0805_2012Metric" V 7620 3870 50  0001 C CNN
F 3 "~" H 7690 3870 50  0001 C CNN
	1    7690 3870
	0    -1   -1   0   
$EndComp
Text HLabel 8050 3770 2    50   Input ~ 0
TXD
Text HLabel 8050 3870 2    50   Input ~ 0
RXD
Wire Wire Line
	7840 3770 8050 3770
Wire Wire Line
	7840 3870 8050 3870
NoConn ~ 5300 4390
$Comp
L Device:C C?
U 1 1 6113862C
P 7640 2610
AR Path="/6113862C" Ref="C?"  Part="1" 
AR Path="/5DA7086F/6113862C" Ref="C?"  Part="1" 
AR Path="/5DE868BC/6113862C" Ref="C?"  Part="1" 
AR Path="/5FDB8EF8/5DE868BC/6113862C" Ref="C?"  Part="1" 
AR Path="/5FF15172/6113862C" Ref="C?"  Part="1" 
AR Path="/60EDB832/6113862C" Ref="C?"  Part="1" 
F 0 "C?" H 7740 2660 50  0000 L CNN
F 1 "10uF" H 7740 2560 50  0000 L CNN
F 2 "Capacitor_SMD:C_0805_2012Metric" H 7640 2610 50  0001 C CNN
F 3 "~" H 7640 2610 50  0001 C CNN
	1    7640 2610
	1    0    0    -1  
$EndComp
$Comp
L Device:C C?
U 1 1 6113862B
P 6040 2610
AR Path="/6113862B" Ref="C?"  Part="1" 
AR Path="/5DA7086F/6113862B" Ref="C?"  Part="1" 
AR Path="/5DE868BC/6113862B" Ref="C?"  Part="1" 
AR Path="/5FDB8EF8/5DE868BC/6113862B" Ref="C?"  Part="1" 
AR Path="/5FF15172/6113862B" Ref="C?"  Part="1" 
AR Path="/60EDB832/6113862B" Ref="C?"  Part="1" 
F 0 "C?" H 6218 2656 50  0000 L CNN
F 1 "100nF" H 6218 2565 50  0000 L CNN
F 2 "Capacitor_SMD:C_0805_2012Metric" H 6040 2610 50  0001 C CNN
F 3 "~" H 6040 2610 50  0001 C CNN
	1    6040 2610
	1    0    0    -1  
$EndComp
$Comp
L power:GND #PWR?
U 1 1 5DD8AA62
P 6040 2840
F 0 "#PWR?" H 6040 2590 50  0001 C CNN
F 1 "GND" H 6045 2667 50  0000 C CNN
F 2 "" H 6040 2840 50  0001 C CNN
F 3 "" H 6040 2840 50  0001 C CNN
	1    6040 2840
	1    0    0    -1  
$EndComp
Wire Wire Line
	7640 2410 7640 2460
Wire Wire Line
	7190 2460 7190 2410
Wire Wire Line
	7190 2410 7640 2410
Wire Wire Line
	6040 2460 6040 2410
Wire Wire Line
	6040 2760 6040 2840
Wire Wire Line
	7190 2840 7190 2760
Wire Wire Line
	7190 2840 7640 2840
Wire Wire Line
	7640 2840 7640 2760
Connection ~ 7190 2840
Connection ~ 6040 2840
Wire Wire Line
	7640 2410 8080 2410
Wire Wire Line
	6740 3490 6740 3570
Connection ~ 7640 2410
Wire Wire Line
	6740 3490 6640 3490
Wire Wire Line
	6640 3490 6640 3570
Connection ~ 6740 3490
Wire Wire Line
	8080 2410 8080 3490
$Comp
L Device:C C?
U 1 1 5DE218A1
P 6740 3240
AR Path="/5DE218A1" Ref="C?"  Part="1" 
AR Path="/5DA7086F/5DE218A1" Ref="C?"  Part="1" 
AR Path="/5DE868BC/5DE218A1" Ref="C?"  Part="1" 
AR Path="/5FDB8EF8/5DE868BC/5DE218A1" Ref="C?"  Part="1" 
AR Path="/5FF15172/5DE218A1" Ref="C?"  Part="1" 
AR Path="/60EDB832/5DE218A1" Ref="C?"  Part="1" 
F 0 "C?" H 6840 3290 50  0000 L CNN
F 1 "10uF" H 6840 3190 50  0000 L CNN
F 2 "Capacitor_SMD:C_0805_2012Metric" H 6740 3240 50  0001 C CNN
F 3 "~" H 6740 3240 50  0001 C CNN
	1    6740 3240
	-1   0    0    1   
$EndComp
$Comp
L Device:C C?
U 1 1 5DE218A7
P 7190 3240
AR Path="/5DE218A7" Ref="C?"  Part="1" 
AR Path="/5DA7086F/5DE218A7" Ref="C?"  Part="1" 
AR Path="/5DE868BC/5DE218A7" Ref="C?"  Part="1" 
AR Path="/5FDB8EF8/5DE868BC/5DE218A7" Ref="C?"  Part="1" 
AR Path="/5FF15172/5DE218A7" Ref="C?"  Part="1" 
AR Path="/60EDB832/5DE218A7" Ref="C?"  Part="1" 
F 0 "C?" H 7290 3290 50  0000 L CNN
F 1 "100nF" H 7290 3190 50  0000 L CNN
F 2 "Capacitor_SMD:C_0805_2012Metric" H 7190 3240 50  0001 C CNN
F 3 "~" H 7190 3240 50  0001 C CNN
	1    7190 3240
	-1   0    0    1   
$EndComp
Wire Wire Line
	6740 3490 6740 3390
Wire Wire Line
	6740 3090 6740 2840
Connection ~ 6740 2840
Wire Wire Line
	6740 2840 7190 2840
Wire Wire Line
	8080 3490 7190 3490
Wire Wire Line
	7190 3090 7190 2840
Wire Wire Line
	7190 3390 7190 3490
Connection ~ 7190 3490
Wire Wire Line
	7190 3490 6740 3490
$Comp
L power:+3.3V #PWR?
U 1 1 5DE38E4E
P 8080 2410
F 0 "#PWR?" H 8080 2260 50  0001 C CNN
F 1 "+3.3V" H 8095 2583 50  0000 C CNN
F 2 "" H 8080 2410 50  0001 C CNN
F 3 "" H 8080 2410 50  0001 C CNN
	1    8080 2410
	1    0    0    -1  
$EndComp
Connection ~ 8080 2410
$Comp
L Device:C C?
U 1 1 5DE3F185
P 5350 2620
AR Path="/5DE3F185" Ref="C?"  Part="1" 
AR Path="/5DA7086F/5DE3F185" Ref="C?"  Part="1" 
AR Path="/5DE868BC/5DE3F185" Ref="C?"  Part="1" 
AR Path="/5FDB8EF8/5DE868BC/5DE3F185" Ref="C?"  Part="1" 
AR Path="/5FF15172/5DE3F185" Ref="C?"  Part="1" 
AR Path="/60EDB832/5DE3F185" Ref="C?"  Part="1" 
F 0 "C?" H 5450 2670 50  0000 L CNN
F 1 "10uF" H 5450 2570 50  0000 L CNN
F 2 "Capacitor_SMD:C_0805_2012Metric" H 5350 2620 50  0001 C CNN
F 3 "~" H 5350 2620 50  0001 C CNN
	1    5350 2620
	1    0    0    -1  
$EndComp
Wire Wire Line
	5350 2470 5350 2410
Wire Wire Line
	6040 2840 5350 2840
Wire Wire Line
	5350 2840 5350 2770
Wire Wire Line
	5350 2410 6040 2410
Wire Wire Line
	5350 2410 4840 2410
Wire Wire Line
	4840 2410 4840 3380
Wire Wire Line
	4840 3380 5670 3380
Wire Wire Line
	5670 3380 5670 3990
Connection ~ 5350 2410
Wire Wire Line
	6040 2840 6740 2840
$Comp
L Device:C C?
U 1 1 6113862E
P 7190 2610
AR Path="/6113862E" Ref="C?"  Part="1" 
AR Path="/5DA7086F/6113862E" Ref="C?"  Part="1" 
AR Path="/5DE868BC/6113862E" Ref="C?"  Part="1" 
AR Path="/5FDB8EF8/5DE868BC/6113862E" Ref="C?"  Part="1" 
AR Path="/5FF15172/6113862E" Ref="C?"  Part="1" 
AR Path="/60EDB832/6113862E" Ref="C?"  Part="1" 
F 0 "C?" H 7290 2660 50  0000 L CNN
F 1 "100nF" H 7290 2560 50  0000 L CNN
F 2 "Capacitor_SMD:C_0805_2012Metric" H 7190 2610 50  0001 C CNN
F 3 "~" H 7190 2610 50  0001 C CNN
	1    7190 2610
	1    0    0    -1  
$EndComp
$Comp
L Regulator_Linear:LM1117-3.3 U?
U 1 1 5DDEE4EC
P 6740 2410
F 0 "U?" H 6740 2652 50  0000 C CNN
F 1 "LM1117-3.3" H 6740 2561 50  0000 C CNN
F 2 "Package_TO_SOT_SMD:SOT-223-3_TabPin2" H 6740 2410 50  0001 C CNN
F 3 "http://www.ti.com/lit/ds/symlink/lm1117.pdf" H 6740 2410 50  0001 C CNN
	1    6740 2410
	1    0    0    -1  
$EndComp
Wire Wire Line
	6440 2410 6040 2410
Connection ~ 6040 2410
Wire Wire Line
	7040 2410 7190 2410
Connection ~ 7190 2410
Wire Wire Line
	6740 2710 6740 2840
$Comp
L power:+5V #PWR?
U 1 1 5DE768E0
P 4840 2410
F 0 "#PWR?" H 4840 2260 50  0001 C CNN
F 1 "+5V" H 4855 2583 50  0000 C CNN
F 2 "" H 4840 2410 50  0001 C CNN
F 3 "" H 4840 2410 50  0001 C CNN
	1    4840 2410
	1    0    0    -1  
$EndComp
Connection ~ 4840 2410
$Comp
L Connector_Generic:Conn_01x02 J?
U 1 1 5E0B8A51
P 1610 7240
AR Path="/5E0B8A51" Ref="J?"  Part="1" 
AR Path="/5DE868BC/5E0B8A51" Ref="J?"  Part="1" 
AR Path="/5FDB8EF8/5DE868BC/5E0B8A51" Ref="J?"  Part="1" 
AR Path="/5FF15172/5E0B8A51" Ref="J?"  Part="1" 
AR Path="/60EDB832/5E0B8A51" Ref="J?"  Part="1" 
F 0 "J?" V 1570 6900 50  0000 L CNN
F 1 "Reset_ext" V 1650 6670 50  0000 L CNN
F 2 "Connector_JST:JST_PH_B2B-PH-K_1x02_P2.00mm_Vertical" H 1610 7240 50  0001 C CNN
F 3 "~" H 1610 7240 50  0001 C CNN
	1    1610 7240
	0    -1   1    0   
$EndComp
Wire Wire Line
	1610 7040 1610 6950
Wire Wire Line
	1610 6950 1440 6950
Wire Wire Line
	1440 6950 1440 6860
Connection ~ 1440 6860
Wire Wire Line
	1440 6860 1260 6860
Wire Wire Line
	1710 7040 1710 6950
Wire Wire Line
	1710 6950 1850 6950
Wire Wire Line
	1850 6950 1850 6860
Connection ~ 1850 6860
Text Label 7160 3770 0    50   ~ 0
TX_USB
Text Label 7150 3870 0    50   ~ 0
RX_USB
Wire Wire Line
	7140 3770 7540 3770
Wire Wire Line
	7140 3870 7540 3870
Wire Wire Line
	5300 3990 5670 3990
Wire Wire Line
	4900 4590 4900 4630
Wire Wire Line
	4900 4630 5000 4630
$Comp
L Connector:USB_B_Micro J?
U 1 1 5DEBCFF0
P 5000 4190
F 0 "J?" H 5057 4657 50  0000 C CNN
F 1 "USB_B_Micro" H 5057 4566 50  0000 C CNN
F 2 "Connector_USB:USB_Micro-B_GCT_USB3076-30-A" H 5150 4140 50  0001 C CNN
F 3 "~" H 5150 4140 50  0001 C CNN
	1    5000 4190
	1    0    0    -1  
$EndComp
Wire Wire Line
	5000 4590 5000 4630
Connection ~ 5000 4630
$EndSCHEMATC
