EESchema Schematic File Version 4
LIBS:test_project-cache
EELAYER 29 0
EELAYER END
$Descr A4 11693 8268
encoding utf-8
Sheet 11 23
Title ""
Date ""
Rev ""
Comp ""
Comment1 ""
Comment2 ""
Comment3 ""
Comment4 ""
$EndDescr
$Comp
L Transistor_FET:2N7002 Q?
U 1 1 60F0CCC0
P 5560 4040
F 0 "Q?" V 5810 3900 50  0000 C CNN
F 1 "2N7002" V 5810 4120 50  0000 C CNN
F 2 "Package_TO_SOT_SMD:SOT-23" H 5760 3965 50  0001 L CIN
F 3 "https://www.fairchildsemi.com/datasheets/2N/2N7002.pdf" H 5560 4040 50  0001 L CNN
	1    5560 4040
	0    1    1    0   
$EndComp
$Comp
L Transistor_FET:2N7002 Q?
U 1 1 60F0CCC6
P 5560 3410
F 0 "Q?" V 5790 3230 50  0000 C CNN
F 1 "2N7002" V 5790 3480 50  0000 C CNN
F 2 "Package_TO_SOT_SMD:SOT-23" H 5760 3335 50  0001 L CIN
F 3 "https://www.fairchildsemi.com/datasheets/2N/2N7002.pdf" H 5560 3410 50  0001 L CNN
	1    5560 3410
	0    1    -1   0   
$EndComp
$Comp
L Device:R R?
U 1 1 60F0CCCC
P 4970 3520
F 0 "R?" V 4880 3440 50  0000 C CNN
F 1 "3k3" V 4880 3610 50  0000 C CNN
F 2 "Resistor_SMD:R_0805_2012Metric" V 4900 3520 50  0001 C CNN
F 3 "~" H 4970 3520 50  0001 C CNN
	1    4970 3520
	-1   0    0    1   
$EndComp
$Comp
L Device:R R?
U 1 1 60F0CCD2
P 4970 3920
F 0 "R?" V 4880 3840 50  0000 C CNN
F 1 "3k3" V 4880 4010 50  0000 C CNN
F 2 "Resistor_SMD:R_0805_2012Metric" V 4900 3920 50  0001 C CNN
F 3 "~" H 4970 3920 50  0001 C CNN
	1    4970 3920
	-1   0    0    1   
$EndComp
$Comp
L power:+3.3V #PWR?
U 1 1 60F0CCD8
P 4800 3720
F 0 "#PWR?" H 4800 3570 50  0001 C CNN
F 1 "+3.3V" V 4800 3980 50  0000 C CNN
F 2 "" H 4800 3720 50  0001 C CNN
F 3 "" H 4800 3720 50  0001 C CNN
	1    4800 3720
	0    -1   -1   0   
$EndComp
Wire Wire Line
	5560 3720 5560 3610
Wire Wire Line
	5560 3720 5560 3840
Connection ~ 5560 3720
Wire Wire Line
	4970 3720 4970 3670
Wire Wire Line
	4770 4140 4970 4140
Wire Wire Line
	4770 3310 4970 3310
Wire Wire Line
	4970 3370 4970 3310
Connection ~ 4970 3310
Wire Wire Line
	4970 3310 5360 3310
Wire Wire Line
	4970 4070 4970 4140
Connection ~ 4970 4140
Wire Wire Line
	4970 4140 5360 4140
$Comp
L Device:R R?
U 1 1 60F0CCEA
P 6150 3920
F 0 "R?" V 6060 3840 50  0000 C CNN
F 1 "4k7" V 6060 4010 50  0000 C CNN
F 2 "Resistor_SMD:R_0805_2012Metric" V 6080 3920 50  0001 C CNN
F 3 "~" H 6150 3920 50  0001 C CNN
	1    6150 3920
	1    0    0    -1  
$EndComp
$Comp
L Device:R R?
U 1 1 60F0CCF0
P 6150 3520
F 0 "R?" V 6060 3440 50  0000 C CNN
F 1 "4k7" V 6060 3610 50  0000 C CNN
F 2 "Resistor_SMD:R_0805_2012Metric" V 6080 3520 50  0001 C CNN
F 3 "~" H 6150 3520 50  0001 C CNN
	1    6150 3520
	1    0    0    -1  
$EndComp
Wire Wire Line
	6150 3670 6150 3720
$Comp
L power:+5V #PWR?
U 1 1 60F0CCF7
P 6150 3720
F 0 "#PWR?" H 6150 3570 50  0001 C CNN
F 1 "+5V" V 6150 3850 50  0000 L CNN
F 2 "" H 6150 3720 50  0001 C CNN
F 3 "" H 6150 3720 50  0001 C CNN
	1    6150 3720
	0    1    1    0   
$EndComp
Connection ~ 6150 3720
Wire Wire Line
	6150 3720 6150 3770
Wire Wire Line
	5760 4140 6150 4140
Wire Wire Line
	6150 4140 6150 4070
Wire Wire Line
	6150 4140 6390 4140
Connection ~ 6150 4140
Wire Wire Line
	5760 3310 6150 3310
Wire Wire Line
	6150 3310 6150 3370
Connection ~ 6150 3310
Wire Wire Line
	4970 3770 4970 3720
Wire Wire Line
	4800 3720 4970 3720
Connection ~ 4970 3720
Wire Wire Line
	4970 3720 5560 3720
Wire Wire Line
	6150 3310 6360 3310
Text HLabel 6360 3310 2    50   BiDi ~ 0
SDA_HIGH
Text HLabel 6390 4140 2    50   BiDi ~ 0
SCL_HIGH
Text HLabel 4770 3310 0    50   BiDi ~ 0
SDA_LOW
Text HLabel 4770 4140 0    50   BiDi ~ 0
SCL_LOW
$EndSCHEMATC
