EESchema Schematic File Version 4
LIBS:test_project-cache
EELAYER 29 0
EELAYER END
$Descr A4 11693 8268
encoding utf-8
Sheet 9 23
Title ""
Date ""
Rev ""
Comp ""
Comment1 ""
Comment2 ""
Comment3 ""
Comment4 ""
$EndDescr
$Comp
L power:GND #PWR?
U 1 1 6004CF5A
P 1400 6410
AR Path="/5FDB8EF8/6004CF5A" Ref="#PWR?"  Part="1" 
AR Path="/6003A36D/6004CF5A" Ref="#PWR?"  Part="1" 
AR Path="/6004CF5A" Ref="#PWR?"  Part="1" 
AR Path="/60EDB96D/6004CF5A" Ref="#PWR?"  Part="1" 
F 0 "#PWR?" H 1400 6160 50  0001 C CNN
F 1 "GND" H 1405 6237 50  0000 C CNN
F 2 "" H 1400 6410 50  0001 C CNN
F 3 "" H 1400 6410 50  0001 C CNN
	1    1400 6410
	1    0    0    -1  
$EndComp
Wire Wire Line
	1400 6410 1400 6340
Wire Wire Line
	1400 5900 1400 5840
Text Notes 1330 5360 0    101  ~ 20
Capacitors
$Comp
L Device:C C?
U 1 1 6004CF69
P 2320 6190
AR Path="/5FDB8EF8/6004CF69" Ref="C?"  Part="1" 
AR Path="/6003A36D/6004CF69" Ref="C?"  Part="1" 
AR Path="/60EDB96D/6004CF69" Ref="C?"  Part="1" 
F 0 "C?" H 2435 6236 50  0000 L CNN
F 1 "100uF" H 2435 6145 50  0000 L CNN
F 2 "Capacitor_SMD:C_1206_3216Metric" H 2358 6040 50  0001 C CNN
F 3 "~" H 2320 6190 50  0001 C CNN
	1    2320 6190
	1    0    0    -1  
$EndComp
$Comp
L Device:C C?
U 1 1 61171F3D
P 2820 6190
AR Path="/5FDB8EF8/61171F3D" Ref="C?"  Part="1" 
AR Path="/6003A36D/61171F3D" Ref="C?"  Part="1" 
AR Path="/60EDB96D/61171F3D" Ref="C?"  Part="1" 
F 0 "C?" H 2935 6236 50  0000 L CNN
F 1 "100uF" H 2935 6145 50  0000 L CNN
F 2 "Capacitor_SMD:C_1206_3216Metric" H 2858 6040 50  0001 C CNN
F 3 "~" H 2820 6190 50  0001 C CNN
	1    2820 6190
	1    0    0    -1  
$EndComp
$Comp
L Device:C C?
U 1 1 61171F3E
P 3260 6190
AR Path="/5FDB8EF8/61171F3E" Ref="C?"  Part="1" 
AR Path="/6003A36D/61171F3E" Ref="C?"  Part="1" 
AR Path="/60EDB96D/61171F3E" Ref="C?"  Part="1" 
F 0 "C?" H 3375 6236 50  0000 L CNN
F 1 "100nF" H 3375 6145 50  0000 L CNN
F 2 "Capacitor_SMD:C_0805_2012Metric" H 3298 6040 50  0001 C CNN
F 3 "~" H 3260 6190 50  0001 C CNN
	1    3260 6190
	1    0    0    -1  
$EndComp
Wire Wire Line
	1400 5900 1830 5900
Wire Wire Line
	2820 6040 2820 5900
Connection ~ 2820 5900
Wire Wire Line
	2820 5900 3260 5900
Wire Wire Line
	2320 6040 2320 5900
Connection ~ 2320 5900
Wire Wire Line
	2320 5900 2820 5900
Connection ~ 1830 5900
Wire Wire Line
	1830 5900 2320 5900
$Comp
L Device:Crystal Y?
U 1 1 6005FDBB
P 5110 2410
F 0 "Y?" V 5064 2541 50  0000 L CNN
F 1 "8MHz" V 5155 2541 50  0000 L CNN
F 2 "Crystal:Crystal_SMD_HC49-SD" H 5110 2410 50  0001 C CNN
F 3 "~" H 5110 2410 50  0001 C CNN
	1    5110 2410
	0    1    1    0   
$EndComp
$Comp
L Device:C C?
U 1 1 60060EE4
P 4510 2100
AR Path="/5FDB8EF8/60060EE4" Ref="C?"  Part="1" 
AR Path="/6003A36D/60060EE4" Ref="C?"  Part="1" 
AR Path="/60EDB96D/60060EE4" Ref="C?"  Part="1" 
F 0 "C?" V 4640 2150 50  0000 L CNN
F 1 "20pF" V 4640 1860 50  0000 L CNN
F 2 "Capacitor_SMD:C_0805_2012Metric" H 4548 1950 50  0001 C CNN
F 3 "~" H 4510 2100 50  0001 C CNN
	1    4510 2100
	0    1    1    0   
$EndComp
$Comp
L Device:C C?
U 1 1 600621AD
P 4510 2710
AR Path="/5FDB8EF8/600621AD" Ref="C?"  Part="1" 
AR Path="/6003A36D/600621AD" Ref="C?"  Part="1" 
AR Path="/60EDB96D/600621AD" Ref="C?"  Part="1" 
F 0 "C?" V 4360 2800 50  0000 L CNN
F 1 "20pF" V 4360 2490 50  0000 L CNN
F 2 "Capacitor_SMD:C_0805_2012Metric" H 4548 2560 50  0001 C CNN
F 3 "~" H 4510 2710 50  0001 C CNN
	1    4510 2710
	0    1    1    0   
$EndComp
Wire Wire Line
	4660 2100 5110 2100
Wire Wire Line
	5110 2100 5110 2260
Wire Wire Line
	4660 2710 5110 2710
Wire Wire Line
	5110 2710 5110 2560
Wire Wire Line
	4360 2100 4080 2100
Wire Wire Line
	4080 2710 4360 2710
Wire Wire Line
	4080 2100 4080 2710
Connection ~ 5110 2710
Wire Wire Line
	5740 2100 5740 2610
Connection ~ 5110 2100
$Comp
L Device:Crystal Y?
U 1 1 61171F43
P 4860 3310
F 0 "Y?" V 4906 3441 50  0000 L CNN
F 1 "32k768" V 4815 3441 50  0000 L CNN
F 2 "Crystal:Crystal_DS26_D2.0mm_L6.0mm_Vertical" H 4860 3310 50  0001 C CNN
F 3 "~" H 4860 3310 50  0001 C CNN
	1    4860 3310
	0    1    -1   0   
$EndComp
$Comp
L Device:C C?
U 1 1 61171F44
P 4510 3620
AR Path="/5FDB8EF8/61171F44" Ref="C?"  Part="1" 
AR Path="/6003A36D/61171F44" Ref="C?"  Part="1" 
AR Path="/60EDB96D/61171F44" Ref="C?"  Part="1" 
F 0 "C?" V 4640 3670 50  0000 L CNN
F 1 "20pF" V 4640 3380 50  0000 L CNN
F 2 "Capacitor_SMD:C_0805_2012Metric" H 4548 3470 50  0001 C CNN
F 3 "~" H 4510 3620 50  0001 C CNN
	1    4510 3620
	0    1    -1   0   
$EndComp
$Comp
L Device:C C?
U 1 1 61171F45
P 4510 3010
AR Path="/5FDB8EF8/61171F45" Ref="C?"  Part="1" 
AR Path="/6003A36D/61171F45" Ref="C?"  Part="1" 
AR Path="/60EDB96D/61171F45" Ref="C?"  Part="1" 
F 0 "C?" V 4360 3070 50  0000 L CNN
F 1 "20pF" V 4370 2780 50  0000 L CNN
F 2 "Capacitor_SMD:C_0805_2012Metric" H 4548 2860 50  0001 C CNN
F 3 "~" H 4510 3010 50  0001 C CNN
	1    4510 3010
	0    1    -1   0   
$EndComp
Wire Wire Line
	4660 3620 4860 3620
Wire Wire Line
	4860 3620 4860 3460
Wire Wire Line
	4660 3010 4860 3010
Wire Wire Line
	4860 3010 4860 3160
Wire Wire Line
	4360 3620 4080 3620
Wire Wire Line
	4080 3010 4360 3010
Wire Wire Line
	4080 3620 4080 3010
Wire Wire Line
	5310 3620 5310 3110
$Comp
L power:GND #PWR?
U 1 1 600A775F
P 4080 3740
AR Path="/5FDB8EF8/600A775F" Ref="#PWR?"  Part="1" 
AR Path="/6003A36D/600A775F" Ref="#PWR?"  Part="1" 
AR Path="/600A775F" Ref="#PWR?"  Part="1" 
AR Path="/60EDB96D/600A775F" Ref="#PWR?"  Part="1" 
F 0 "#PWR?" H 4080 3490 50  0001 C CNN
F 1 "GND" H 4085 3567 50  0000 C CNN
F 2 "" H 4080 3740 50  0001 C CNN
F 3 "" H 4080 3740 50  0001 C CNN
	1    4080 3740
	1    0    0    -1  
$EndComp
Wire Wire Line
	4080 3740 4080 3620
Connection ~ 4080 3620
Wire Wire Line
	4080 3010 4080 2710
Wire Wire Line
	4080 2710 4090 2710
Connection ~ 4080 3010
Connection ~ 4080 2710
Wire Wire Line
	5740 2610 6260 2610
Text Label 6200 2210 2    50   ~ 0
RESET
Text Label 6190 2410 2    50   ~ 0
BOOT0
Wire Wire Line
	6200 2210 6260 2210
Wire Wire Line
	6190 2410 6260 2410
$Comp
L MCU_ST_STM32F1:STM32F103C8Tx U?
U 1 1 6005CCDF
P 6960 3510
F 0 "U?" H 7400 5010 50  0000 C CNN
F 1 "STM32F103C8Tx" H 6370 5020 50  0000 C CNN
F 2 "Package_QFP:LQFP-48_7x7mm_P0.5mm" H 6360 2110 50  0001 R CNN
F 3 "http://www.st.com/st-web-ui/static/active/en/resource/technical/document/datasheet/CD00161566.pdf" H 6960 3510 50  0001 C CNN
	1    6960 3510
	1    0    0    -1  
$EndComp
Wire Wire Line
	6860 2010 6860 1890
Wire Wire Line
	6860 1890 6960 1890
Wire Wire Line
	6960 1890 6960 2010
Wire Wire Line
	6960 1890 7060 1890
Wire Wire Line
	7060 1890 7060 2010
Connection ~ 6960 1890
Wire Wire Line
	7060 1890 7160 1890
Wire Wire Line
	7160 1890 7160 2010
Connection ~ 7060 1890
Wire Wire Line
	6860 1890 6860 1740
Connection ~ 6860 1890
Wire Wire Line
	6760 5010 6760 5140
Wire Wire Line
	6760 5140 6860 5140
Wire Wire Line
	6860 5140 6860 5010
Wire Wire Line
	6860 5140 6960 5140
Wire Wire Line
	6960 5140 6960 5010
Connection ~ 6860 5140
Wire Wire Line
	6960 5140 7060 5140
Wire Wire Line
	7060 5140 7060 5010
Connection ~ 6960 5140
$Comp
L power:GND #PWR?
U 1 1 61171F47
P 6760 5580
AR Path="/5FDB8EF8/61171F47" Ref="#PWR?"  Part="1" 
AR Path="/6003A36D/61171F47" Ref="#PWR?"  Part="1" 
AR Path="/61171F47" Ref="#PWR?"  Part="1" 
AR Path="/60EDB96D/61171F47" Ref="#PWR?"  Part="1" 
F 0 "#PWR?" H 6760 5330 50  0001 C CNN
F 1 "GND" H 6765 5407 50  0000 C CNN
F 2 "" H 6760 5580 50  0001 C CNN
F 3 "" H 6760 5580 50  0001 C CNN
	1    6760 5580
	1    0    0    -1  
$EndComp
Wire Wire Line
	6760 5580 6760 5520
Connection ~ 6760 5140
Text Notes 5110 1690 0    101  ~ 20
Microcontroller
Wire Wire Line
	1830 6040 1830 5900
$Comp
L Device:C C?
U 1 1 61171F3B
P 1830 6190
AR Path="/5FDB8EF8/61171F3B" Ref="C?"  Part="1" 
AR Path="/6003A36D/61171F3B" Ref="C?"  Part="1" 
AR Path="/60EDB96D/61171F3B" Ref="C?"  Part="1" 
F 0 "C?" H 1945 6236 50  0000 L CNN
F 1 "100nF" H 1945 6145 50  0000 L CNN
F 2 "Capacitor_SMD:C_0805_2012Metric" H 1868 6040 50  0001 C CNN
F 3 "~" H 1830 6190 50  0001 C CNN
	1    1830 6190
	1    0    0    -1  
$EndComp
Wire Wire Line
	6180 4110 6260 4110
Wire Wire Line
	7560 4410 7660 4410
Wire Wire Line
	7560 4510 7660 4510
Text Label 6190 3510 2    50   ~ 0
BOOT1
Wire Wire Line
	6190 3510 6260 3510
Wire Wire Line
	6180 3810 6260 3810
$Comp
L Connector:USB_B_Micro J?
U 1 1 605417F6
P 9840 4610
AR Path="/605417F6" Ref="J?"  Part="1" 
AR Path="/6003A36D/605417F6" Ref="J?"  Part="1" 
AR Path="/60EDB96D/605417F6" Ref="J?"  Part="1" 
F 0 "J?" V 9851 4940 50  0000 L CNN
F 1 "USB_B_Micro" V 9942 4940 50  0001 L CNN
F 2 "Connector_USB:USB_Mini-B_Wuerth_65100516121_Horizontal" H 9990 4560 50  0001 C CNN
F 3 "~" H 9990 4560 50  0001 C CNN
	1    9840 4610
	0    1    1    0   
$EndComp
Wire Wire Line
	9440 4610 9350 4610
Wire Wire Line
	9350 4610 9350 4510
Wire Wire Line
	9350 4510 9440 4510
$Comp
L power:GND #PWR?
U 1 1 61171F70
P 9070 4640
AR Path="/5FDB8EF8/61171F70" Ref="#PWR?"  Part="1" 
AR Path="/6003A36D/61171F70" Ref="#PWR?"  Part="1" 
AR Path="/61171F70" Ref="#PWR?"  Part="1" 
AR Path="/60EDB96D/61171F70" Ref="#PWR?"  Part="1" 
F 0 "#PWR?" H 9070 4390 50  0001 C CNN
F 1 "GND" H 9075 4467 50  0000 C CNN
F 2 "" H 9070 4640 50  0001 C CNN
F 3 "" H 9070 4640 50  0001 C CNN
	1    9070 4640
	1    0    0    -1  
$EndComp
Wire Wire Line
	9070 4640 9070 4510
Wire Wire Line
	9070 4510 9350 4510
Connection ~ 9350 4510
NoConn ~ 9640 4910
$Comp
L power:+5V #PWR?
U 1 1 61171F71
P 10890 5000
F 0 "#PWR?" H 10890 4850 50  0001 C CNN
F 1 "+5V" H 10905 5173 50  0000 C CNN
F 2 "" H 10890 5000 50  0001 C CNN
F 3 "" H 10890 5000 50  0001 C CNN
	1    10890 5000
	-1   0    0    1   
$EndComp
Wire Wire Line
	10040 4990 10040 4910
Text Label 9740 5020 3    50   ~ 0
USB-
Text Label 8060 4410 0    50   ~ 0
USB-
Text Label 8060 4510 0    50   ~ 0
USB+
Text Label 8060 4610 0    50   ~ 0
SWDIO
Text Label 8060 4710 0    50   ~ 0
SWCLK
Wire Wire Line
	7960 4410 8060 4410
Wire Wire Line
	7960 4510 8060 4510
Wire Wire Line
	7560 4610 8060 4610
Wire Wire Line
	7560 4710 8060 4710
Text Label 9840 5020 3    50   ~ 0
USB+
Wire Wire Line
	9740 5020 9740 4910
Wire Wire Line
	9840 5020 9840 4960
$Comp
L Device:R R?
U 1 1 61171F79
P 10150 5440
AR Path="/5FDB8EF8/61171F79" Ref="R?"  Part="1" 
AR Path="/6003A36D/61171F79" Ref="R?"  Part="1" 
AR Path="/60EDB96D/61171F79" Ref="R?"  Part="1" 
F 0 "R?" V 10100 5270 50  0000 C CNN
F 1 "1k5" V 10100 5620 50  0000 C CNN
F 2 "Resistor_SMD:R_0805_2012Metric" V 10080 5440 50  0001 C CNN
F 3 "~" H 10150 5440 50  0001 C CNN
	1    10150 5440
	0    1    1    0   
$EndComp
Wire Wire Line
	10300 5440 10540 5440
Wire Wire Line
	10540 5440 10540 5400
Wire Wire Line
	10000 5440 9910 5440
Wire Wire Line
	9910 5440 9910 4960
Wire Wire Line
	9910 4960 9840 4960
Connection ~ 9840 4960
Wire Wire Line
	9840 4960 9840 4910
Text Notes 9260 4270 0    101  ~ 20
USB Interface
$Comp
L Connector_Generic:Conn_01x04 J?
U 1 1 61171F48
P 9830 1770
AR Path="/5FDB8EF8/61171F48" Ref="J?"  Part="1" 
AR Path="/6003A36D/61171F48" Ref="J?"  Part="1" 
AR Path="/60EDB96D/61171F48" Ref="J?"  Part="1" 
F 0 "J?" V 9830 1400 50  0000 L CNN
F 1 "Conn_01x04" H 9910 1671 50  0001 L CNN
F 2 "Connector_JST:JST_PH_B4B-PH-K_1x04_P2.00mm_Vertical" H 9830 1770 50  0001 C CNN
F 3 "~" H 9830 1770 50  0001 C CNN
	1    9830 1770
	0    -1   -1   0   
$EndComp
$Comp
L power:GND #PWR?
U 1 1 6020DB43
P 10520 2080
AR Path="/5FDB8EF8/6020DB43" Ref="#PWR?"  Part="1" 
AR Path="/6003A36D/6020DB43" Ref="#PWR?"  Part="1" 
AR Path="/6020DB43" Ref="#PWR?"  Part="1" 
AR Path="/60EDB96D/6020DB43" Ref="#PWR?"  Part="1" 
F 0 "#PWR?" H 10520 1830 50  0001 C CNN
F 1 "GND" H 10525 1907 50  0000 C CNN
F 2 "" H 10520 2080 50  0001 C CNN
F 3 "" H 10520 2080 50  0001 C CNN
	1    10520 2080
	1    0    0    -1  
$EndComp
Text Label 9830 2410 3    50   ~ 0
SWDIO
Text Label 9930 2410 3    50   ~ 0
SWCLK
$Comp
L Device:R R?
U 1 1 61171F4A
P 9100 2280
AR Path="/5FDB8EF8/61171F4A" Ref="R?"  Part="1" 
AR Path="/6003A36D/61171F4A" Ref="R?"  Part="1" 
AR Path="/60EDB96D/61171F4A" Ref="R?"  Part="1" 
F 0 "R?" H 8960 2240 50  0000 C CNN
F 1 "10k" H 8950 2340 50  0000 C CNN
F 2 "Resistor_SMD:R_0805_2012Metric" V 9030 2280 50  0001 C CNN
F 3 "~" H 9100 2280 50  0001 C CNN
	1    9100 2280
	1    0    0    -1  
$EndComp
Wire Wire Line
	10520 2080 10520 1970
Wire Wire Line
	10030 1970 10260 1970
$Comp
L Device:R R?
U 1 1 61171F4B
P 10260 2270
AR Path="/5FDB8EF8/61171F4B" Ref="R?"  Part="1" 
AR Path="/6003A36D/61171F4B" Ref="R?"  Part="1" 
AR Path="/60EDB96D/61171F4B" Ref="R?"  Part="1" 
F 0 "R?" H 10140 2230 50  0000 C CNN
F 1 "10k" H 10130 2330 50  0000 C CNN
F 2 "Resistor_SMD:R_0805_2012Metric" V 10190 2270 50  0001 C CNN
F 3 "~" H 10260 2270 50  0001 C CNN
	1    10260 2270
	1    0    0    -1  
$EndComp
Wire Wire Line
	9100 2130 9100 2090
Wire Wire Line
	9730 2500 9730 2210
Wire Wire Line
	9730 2210 9830 2210
Wire Wire Line
	9830 2210 9830 1970
Wire Wire Line
	9930 1970 9930 2210
Wire Wire Line
	9830 2410 9830 2210
Connection ~ 9830 2210
Wire Wire Line
	10260 2120 10260 1970
Connection ~ 10260 1970
Wire Wire Line
	10260 1970 10520 1970
Wire Wire Line
	10260 2420 10260 2480
Wire Wire Line
	10260 2480 10020 2480
Wire Wire Line
	10020 2480 10020 2210
Wire Wire Line
	10020 2210 9930 2210
Connection ~ 9930 2210
Wire Wire Line
	9930 2210 9930 2410
Text Notes 9350 1570 0    101  ~ 20
SWD Interface
Text Label 1650 1730 2    50   ~ 0
BOOT0
Text Label 3350 1730 0    50   ~ 0
BOOT1
$Comp
L power:GND #PWR?
U 1 1 61171F4D
P 2510 2040
AR Path="/5FDB8EF8/61171F4D" Ref="#PWR?"  Part="1" 
AR Path="/6003A36D/61171F4D" Ref="#PWR?"  Part="1" 
AR Path="/61171F4D" Ref="#PWR?"  Part="1" 
AR Path="/60EDB96D/61171F4D" Ref="#PWR?"  Part="1" 
F 0 "#PWR?" H 2510 1790 50  0001 C CNN
F 1 "GND" H 2515 1867 50  0000 C CNN
F 2 "" H 2510 2040 50  0001 C CNN
F 3 "" H 2510 2040 50  0001 C CNN
	1    2510 2040
	1    0    0    -1  
$EndComp
$Comp
L Device:R R?
U 1 1 61171F4E
P 1920 1730
AR Path="/5FDB8EF8/61171F4E" Ref="R?"  Part="1" 
AR Path="/6003A36D/61171F4E" Ref="R?"  Part="1" 
AR Path="/60EDB96D/61171F4E" Ref="R?"  Part="1" 
F 0 "R?" V 1830 1730 50  0000 C CNN
F 1 "100k" V 2020 1730 50  0000 C CNN
F 2 "Resistor_SMD:R_0805_2012Metric" V 1850 1730 50  0001 C CNN
F 3 "~" H 1920 1730 50  0001 C CNN
	1    1920 1730
	0    1    1    0   
$EndComp
$Comp
L Device:R R?
U 1 1 61171F4F
P 3040 1730
AR Path="/5FDB8EF8/61171F4F" Ref="R?"  Part="1" 
AR Path="/6003A36D/61171F4F" Ref="R?"  Part="1" 
AR Path="/60EDB96D/61171F4F" Ref="R?"  Part="1" 
F 0 "R?" V 2950 1730 50  0000 C CNN
F 1 "100k" V 3140 1730 50  0000 C CNN
F 2 "Resistor_SMD:R_0805_2012Metric" V 2970 1730 50  0001 C CNN
F 3 "~" H 3040 1730 50  0001 C CNN
	1    3040 1730
	0    1    1    0   
$EndComp
Wire Wire Line
	1650 1730 1770 1730
Wire Wire Line
	2750 1730 2890 1730
Wire Wire Line
	3190 1730 3350 1730
Text Notes 940  1320 0    101  ~ 20
Boot Jumper
Wire Wire Line
	9100 2430 9100 2500
Wire Wire Line
	9100 2500 9730 2500
$Comp
L Jumper:SolderJumper_2_Open JP?
U 1 1 60433451
P 9450 2090
F 0 "JP?" H 9450 2010 50  0000 C CNN
F 1 "SolderJumper_2_Open" V 9495 2158 50  0001 L CNN
F 2 "Jumper:SolderJumper-2_P1.3mm_Open_RoundedPad1.0x1.5mm" H 9450 2090 50  0001 C CNN
F 3 "~" H 9450 2090 50  0001 C CNN
	1    9450 2090
	-1   0    0    1   
$EndComp
Wire Wire Line
	9600 2090 9730 2090
Wire Wire Line
	9730 2090 9730 1970
Wire Wire Line
	9100 2090 9300 2090
Connection ~ 9100 2090
Wire Wire Line
	9100 2090 9100 2060
$Comp
L Device:D_Schottky D?
U 1 1 61171F4C
P 10310 4990
F 0 "D?" H 10310 4880 50  0000 C CNN
F 1 "SS34" H 10160 4870 50  0001 C CNN
F 2 "Diode_SMD:D_SMA" H 10310 4990 50  0001 C CNN
F 3 "~" H 10310 4990 50  0001 C CNN
	1    10310 4990
	-1   0    0    1   
$EndComp
Wire Wire Line
	10040 4990 10160 4990
Wire Wire Line
	10460 4990 10890 4990
Wire Wire Line
	10890 4990 10890 5000
$Comp
L power:VCC #PWR?
U 1 1 61171F68
P 1400 5840
F 0 "#PWR?" H 1400 5690 50  0001 C CNN
F 1 "VCC" H 1415 6013 50  0000 C CNN
F 2 "" H 1400 5840 50  0001 C CNN
F 3 "" H 1400 5840 50  0001 C CNN
	1    1400 5840
	1    0    0    -1  
$EndComp
$Comp
L power:VCC #PWR?
U 1 1 603D9BD0
P 2510 1310
F 0 "#PWR?" H 2510 1160 50  0001 C CNN
F 1 "VCC" H 2525 1483 50  0000 C CNN
F 2 "" H 2510 1310 50  0001 C CNN
F 3 "" H 2510 1310 50  0001 C CNN
	1    2510 1310
	1    0    0    -1  
$EndComp
$Comp
L power:VCC #PWR?
U 1 1 603F8D8E
P 10540 5400
F 0 "#PWR?" H 10540 5250 50  0001 C CNN
F 1 "VCC" H 10555 5573 50  0000 C CNN
F 2 "" H 10540 5400 50  0001 C CNN
F 3 "" H 10540 5400 50  0001 C CNN
	1    10540 5400
	1    0    0    -1  
$EndComp
$Comp
L power:VCC #PWR?
U 1 1 60408906
P 9100 2060
F 0 "#PWR?" H 9100 1910 50  0001 C CNN
F 1 "VCC" H 9115 2233 50  0000 C CNN
F 2 "" H 9100 2060 50  0001 C CNN
F 3 "" H 9100 2060 50  0001 C CNN
	1    9100 2060
	1    0    0    -1  
$EndComp
$Comp
L power:VCC #PWR?
U 1 1 61171F6E
P 6860 1740
F 0 "#PWR?" H 6860 1590 50  0001 C CNN
F 1 "VCC" H 6875 1913 50  0000 C CNN
F 2 "" H 6860 1740 50  0001 C CNN
F 3 "" H 6860 1740 50  0001 C CNN
	1    6860 1740
	1    0    0    -1  
$EndComp
NoConn ~ 6760 2010
Text Label 4940 6130 2    50   ~ 0
RESET
$Comp
L Device:R R?
U 1 1 6056A4F0
P 4820 5990
AR Path="/5FDB8EF8/6056A4F0" Ref="R?"  Part="1" 
AR Path="/6003A36D/6056A4F0" Ref="R?"  Part="1" 
AR Path="/60EDB96D/6056A4F0" Ref="R?"  Part="1" 
F 0 "R?" V 4730 5870 50  0000 C CNN
F 1 "10k" V 4730 6060 50  0000 C CNN
F 2 "Resistor_SMD:R_0805_2012Metric" V 4750 5990 50  0001 C CNN
F 3 "~" H 4820 5990 50  0001 C CNN
	1    4820 5990
	0    1    1    0   
$EndComp
$Comp
L power:GND #PWR?
U 1 1 6056ABC4
P 5570 6340
AR Path="/5FDB8EF8/6056ABC4" Ref="#PWR?"  Part="1" 
AR Path="/6003A36D/6056ABC4" Ref="#PWR?"  Part="1" 
AR Path="/6056ABC4" Ref="#PWR?"  Part="1" 
AR Path="/60EDB96D/6056ABC4" Ref="#PWR?"  Part="1" 
F 0 "#PWR?" H 5570 6090 50  0001 C CNN
F 1 "GND" H 5575 6167 50  0000 C CNN
F 2 "" H 5570 6340 50  0001 C CNN
F 3 "" H 5570 6340 50  0001 C CNN
	1    5570 6340
	1    0    0    -1  
$EndComp
$Comp
L Device:C C?
U 1 1 61171F75
P 5290 6310
AR Path="/5FDB8EF8/61171F75" Ref="C?"  Part="1" 
AR Path="/6003A36D/61171F75" Ref="C?"  Part="1" 
AR Path="/60EDB96D/61171F75" Ref="C?"  Part="1" 
F 0 "C?" V 5420 6360 50  0000 L CNN
F 1 "1uF" V 5420 6070 50  0000 L CNN
F 2 "Capacitor_SMD:C_0805_2012Metric" H 5328 6160 50  0001 C CNN
F 3 "~" H 5290 6310 50  0001 C CNN
	1    5290 6310
	0    1    1    0   
$EndComp
Wire Wire Line
	4940 6130 5010 6130
Wire Wire Line
	5010 6130 5010 6310
Connection ~ 5010 6130
Wire Wire Line
	5010 6130 5090 6130
Wire Wire Line
	5440 6310 5570 6310
Wire Wire Line
	5570 6310 5570 6340
Wire Wire Line
	5570 6310 5570 6130
Wire Wire Line
	5570 6130 5490 6130
Connection ~ 5570 6310
Wire Wire Line
	5010 6310 5140 6310
Wire Wire Line
	4970 5990 5010 5990
Wire Wire Line
	5010 5990 5010 6130
$Comp
L power:VCC #PWR?
U 1 1 61171F78
P 4610 6050
F 0 "#PWR?" H 4610 5900 50  0001 C CNN
F 1 "VCC" H 4625 6223 50  0000 C CNN
F 2 "" H 4610 6050 50  0001 C CNN
F 3 "" H 4610 6050 50  0001 C CNN
	1    4610 6050
	-1   0    0    1   
$EndComp
Wire Wire Line
	4610 6050 4610 5990
Wire Wire Line
	4610 5990 4670 5990
$Comp
L Device:R R?
U 1 1 6067803A
P 7810 4510
AR Path="/5FDB8EF8/6067803A" Ref="R?"  Part="1" 
AR Path="/6003A36D/6067803A" Ref="R?"  Part="1" 
AR Path="/60EDB96D/6067803A" Ref="R?"  Part="1" 
F 0 "R?" V 7850 4330 50  0000 C CNN
F 1 "18" V 7850 4690 50  0000 C CNN
F 2 "Resistor_SMD:R_0805_2012Metric" V 7740 4510 50  0001 C CNN
F 3 "~" H 7810 4510 50  0001 C CNN
	1    7810 4510
	0    1    -1   0   
$EndComp
$Comp
L Device:R R?
U 1 1 61171F76
P 7810 4410
AR Path="/5FDB8EF8/61171F76" Ref="R?"  Part="1" 
AR Path="/6003A36D/61171F76" Ref="R?"  Part="1" 
AR Path="/60EDB96D/61171F76" Ref="R?"  Part="1" 
F 0 "R?" V 7760 4230 50  0000 C CNN
F 1 "18" V 7760 4590 50  0000 C CNN
F 2 "Resistor_SMD:R_0805_2012Metric" V 7740 4410 50  0001 C CNN
F 3 "~" H 7810 4410 50  0001 C CNN
	1    7810 4410
	0    1    1    0   
$EndComp
Wire Wire Line
	7560 4310 7660 4310
$Comp
L Device:R R?
U 1 1 614FBCF5
P 6030 3610
AR Path="/5FDB8EF8/614FBCF5" Ref="R?"  Part="1" 
AR Path="/6003A36D/614FBCF5" Ref="R?"  Part="1" 
AR Path="/60EDB96D/614FBCF5" Ref="R?"  Part="1" 
F 0 "R?" V 5980 3420 50  0000 C CNN
F 1 "1k" V 5980 3780 50  0000 C CNN
F 2 "Resistor_SMD:R_0805_2012Metric" V 5960 3610 50  0001 C CNN
F 3 "~" H 6030 3610 50  0001 C CNN
	1    6030 3610
	0    1    1    0   
$EndComp
Wire Wire Line
	6180 3610 6260 3610
Wire Wire Line
	6180 3710 6260 3710
Connection ~ 4860 3010
Connection ~ 4860 3620
Wire Wire Line
	4860 3620 5310 3620
Wire Wire Line
	5110 2100 5740 2100
Wire Wire Line
	5110 2710 6260 2710
Wire Wire Line
	4860 3010 6260 3010
Wire Wire Line
	5310 3110 6260 3110
Wire Wire Line
	5710 3610 5880 3610
$Comp
L Device:LED D?
U 1 1 616F4895
P 7540 5520
AR Path="/60457E44/616F4895" Ref="D?"  Part="1" 
AR Path="/60457E44/60362EF5/616F4895" Ref="D?"  Part="1" 
AR Path="/6003A36D/616F4895" Ref="D?"  Part="1" 
AR Path="/60EDB96D/616F4895" Ref="D?"  Part="1" 
F 0 "D?" H 7370 5590 50  0000 L CNN
F 1 "LED" H 7620 5580 50  0000 L CNN
F 2 "LED_SMD:LED_0805_2012Metric" H 7540 5520 50  0001 C CNN
F 3 "~" H 7540 5520 50  0001 C CNN
	1    7540 5520
	1    0    0    -1  
$EndComp
$Comp
L Device:LED D?
U 1 1 616767C5
P 7540 5290
AR Path="/60457E44/616767C5" Ref="D?"  Part="1" 
AR Path="/60457E44/60362EF5/616767C5" Ref="D?"  Part="1" 
AR Path="/6003A36D/616767C5" Ref="D?"  Part="1" 
AR Path="/60EDB96D/616767C5" Ref="D?"  Part="1" 
F 0 "D?" H 7370 5360 50  0000 L CNN
F 1 "LED" H 7620 5350 50  0000 L CNN
F 2 "LED_SMD:LED_0805_2012Metric" H 7540 5290 50  0001 C CNN
F 3 "~" H 7540 5290 50  0001 C CNN
	1    7540 5290
	1    0    0    -1  
$EndComp
$Comp
L Device:R R?
U 1 1 614FC411
P 6030 3710
AR Path="/5FDB8EF8/614FC411" Ref="R?"  Part="1" 
AR Path="/6003A36D/614FC411" Ref="R?"  Part="1" 
AR Path="/60EDB96D/614FC411" Ref="R?"  Part="1" 
F 0 "R?" V 5980 3520 50  0000 C CNN
F 1 "1k" V 5980 3880 50  0000 C CNN
F 2 "Resistor_SMD:R_0805_2012Metric" V 5960 3710 50  0001 C CNN
F 3 "~" H 6030 3710 50  0001 C CNN
	1    6030 3710
	0    1    1    0   
$EndComp
Text Label 5710 3610 2    50   ~ 0
LED_1
Text Label 5700 3710 2    50   ~ 0
LED_2
Wire Wire Line
	5700 3710 5880 3710
Text Label 7880 5290 0    50   ~ 0
LED_1
Text Label 7870 5520 0    50   ~ 0
LED_2
Wire Wire Line
	7870 5520 7690 5520
Wire Wire Line
	7690 5290 7880 5290
Wire Wire Line
	7390 5290 6760 5290
Connection ~ 6760 5290
Wire Wire Line
	6760 5290 6760 5140
Wire Wire Line
	7390 5520 6760 5520
Connection ~ 6760 5520
Wire Wire Line
	6760 5520 6760 5290
Wire Wire Line
	2070 1730 2250 1730
$Comp
L Jumper:SolderJumper_3_Open JP?
U 1 1 609DCEB1
P 2400 1730
F 0 "JP?" V 2230 1560 50  0000 L CNN
F 1 "SolderJumper_3_Open" V 2445 1798 50  0001 L CNN
F 2 "Jumper:SolderJumper-3_P1.3mm_Open_RoundedPad1.0x1.5mm" H 2400 1730 50  0001 C CNN
F 3 "~" H 2400 1730 50  0001 C CNN
	1    2400 1730
	0    1    1    0   
$EndComp
$Comp
L Jumper:SolderJumper_3_Open JP?
U 1 1 61171F7B
P 2600 1730
F 0 "JP?" V 2430 1560 50  0000 L CNN
F 1 "SolderJumper_3_Open" V 2645 1798 50  0001 L CNN
F 2 "Jumper:SolderJumper-3_P1.3mm_Open_RoundedPad1.0x1.5mm" H 2600 1730 50  0001 C CNN
F 3 "~" H 2600 1730 50  0001 C CNN
	1    2600 1730
	0    -1   -1   0   
$EndComp
Wire Wire Line
	2400 1530 2400 1460
Wire Wire Line
	2400 1460 2510 1460
Wire Wire Line
	2510 1310 2510 1460
Wire Wire Line
	2510 1460 2600 1460
Wire Wire Line
	2600 1460 2600 1530
Connection ~ 2510 1460
Wire Wire Line
	2400 1930 2400 1990
Wire Wire Line
	2400 1990 2510 1990
Wire Wire Line
	2510 1990 2510 2040
Wire Wire Line
	2510 1990 2600 1990
Wire Wire Line
	2600 1990 2600 1930
Connection ~ 2510 1990
$Comp
L Switch:SW_Push SW?
U 1 1 605699AD
P 5290 6130
F 0 "SW?" H 5290 6310 50  0000 C CNN
F 1 "SW_Push" H 5400 6280 50  0001 C CNN
F 2 "Button_Switch_SMD:SW_SPST_SKQG_WithStem" H 5290 6330 50  0001 C CNN
F 3 "~" H 5290 6330 50  0001 C CNN
	1    5290 6130
	1    0    0    -1  
$EndComp
Wire Wire Line
	6190 3310 6260 3310
Wire Wire Line
	6190 3410 6260 3410
Wire Wire Line
	6180 2910 6260 2910
Wire Wire Line
	6180 4710 6260 4710
Wire Wire Line
	6180 4610 6260 4610
Wire Wire Line
	6180 4510 6260 4510
Wire Wire Line
	6180 4410 6260 4410
Wire Wire Line
	6180 4310 6260 4310
Wire Wire Line
	6260 3910 6180 3910
Wire Wire Line
	6260 4010 6180 4010
Wire Wire Line
	6260 4210 6180 4210
Wire Wire Line
	7560 4210 7660 4210
Wire Wire Line
	7560 4110 7660 4110
Wire Wire Line
	7560 3510 7660 3510
Wire Wire Line
	7560 3410 7660 3410
Wire Wire Line
	7560 3310 7660 3310
Wire Wire Line
	7560 3810 7660 3810
Wire Wire Line
	7560 3710 7660 3710
Wire Wire Line
	7560 3610 7660 3610
Wire Wire Line
	7560 4010 7660 4010
Wire Wire Line
	7560 3910 7660 3910
Wire Wire Line
	3260 6040 3260 5900
Text Notes 4600 5680 0    101  ~ 20
Reset
Wire Wire Line
	6180 4810 6260 4810
Wire Wire Line
	7560 4810 7660 4810
Text HLabel 7660 3710 2    50   Output ~ 0
CS
Text HLabel 7660 3810 2    50   Output ~ 0
CLK
Text HLabel 7660 3910 2    50   Input ~ 0
MISO
Text HLabel 7660 4010 2    50   Output ~ 0
MOSI
Text HLabel 6180 4010 0    50   BiDi ~ 0
SDA
Text HLabel 6180 3910 0    50   Output ~ 0
SCL
Wire Wire Line
	1400 6340 3260 6340
$EndSCHEMATC
